data/raw/daniel/waveforms scope/TIA LED TÆNDT.csv

#Digilent WaveForms Oscilloscope Acquisition
#Device Name: Discovery3
#Serial Number: SN:210415BDFD41
#Date Time: 2026-05-11 14:37:28.500.487.300
#Sample rate: 43010.8Hz
#Samples: 32768
#Trigger: Source: Channel 1 Type: Edge Condition: Rising Level: 114.6 mV Hyst.: Auto HoldOff: 0 s
#Channel 1: Range: 200 mV/div Offset: -580 mV Sample Mode: Average

Time (s),Channel 1 (V)
-0.7529065090349505,-0.07561320034391016
-0.7528832590349506,-0.0752980516939349
-0.7528600090349505,-0.07466775439398154
-0.7528367590349505,-0.07411624425652286
-0.7528135090349506,-0.07317079830659712
-0.7527902590349504,-0.07238292668165057
-0.7527670090349505,-0.07183141654419389
-0.7527437590349505,-0.07143748073172254
-0.7527205090349505,-0.07096475775675809
-0.7526972590349505,-0.07057082194428904
-0.7526740090349505,-0.07025567329431193
-0.7526507590349505,-0.06994052464433553
-0.7526275090349506,-0.06994052464433553
-0.7526042590349505,-0.07049203478179422
-0.7525810090349505,-0.07096475775675881
-0.7525577590349506,-0.07159505505670931
-0.7525345090349504,-0.07222535235666783
-0.7525112590349505,-0.07317079830659368
-0.7524880090349505,-0.07403745709403034
-0.7524647590349505,-0.07490411588146628
-0.7524415090349506,-0.07624349764386107
-0.7524182590349505,-0.07711015643129859
-0.7523950090349505,-0.07813438954372313
-0.7523717590349506,-0.07876468684367362
-0.7523485090349505,-0.07900104833115706
-0.7523252590349505,-0.07971013279360395
-0.7523020090349506,-0.07978891995609776
-0.7522787590349505,-0.07971013279360366
-0.7522555090349505,-0.07963134563110985
-0.7522322590349505,-0.07939498414362756
-0.7522090090349505,-0.0790010483311565
-0.7521857590349506,-0.07868589968118124
-0.7521625090349505,-0.07844953819369838
-0.7521392590349505,-0.07805560238122702
-0.7521160090349506,-0.07758287940626404
-0.7520927590349505,-0.07718894359379269
-0.7520695090349505,-0.0767162206188281
-0.7520462590349506,-0.07663743345633429
-0.7520230090349505,-0.07663743345633371
-0.7519997590349505,-0.0765586462938399
-0.7519765090349505,-0.0765586462938399
-0.7519532590349505,-0.07640107196885214
-0.7519300090349506,-0.07663743345633357
-0.7519067590349505,-0.0767162206188281
-0.7518835090349505,-0.07640107196885157
-0.7518602590349506,-0.07632228480635775
-0.7518370090349505,-0.07608592331887575
-0.7518137590349505,-0.07521926453144023
-0.7517905090349506,-0.07387988276904543
-0.7517672590349505,-0.0729344368191068
-0.7517440090349505,-0.0716738422192057
-0.7517207590349505,-0.07049203478179422
-0.7516975090349505,-0.06946780166936922
-0.7516742590349506,-0.06852235571944348
-0.7516510090349505,-0.06734054828203018
-0.7516277590349505,-0.06678903814456991
-0.7516045090349506,-0.06592237935713799
-0.7515812590349505,-0.06615874084461827
-0.7515580090349505,-0.06600116651963051
-0.7515347590349506,-0.06615874084461813
-0.7515115090349505,-0.06552844354466505
-0.7514882590349505,-0.06529208205718362
-0.7514650090349505,-0.06513450773219542
-0.7514417590349505,-0.06529208205718247
-0.7514185090349506,-0.06466178475723199
-0.7513952590349505,-0.06450421043224264
-0.7513720090349505,-0.06403148745727719
-0.7513487590349506,-0.06355876448231432
-0.7513255090349505,-0.06300725434485566
-0.7513022590349505,-0.06245574420739597
-0.7512790090349506,-0.06190423406993929
-0.7512557590349505,-0.06151029825746507
-0.7512325090349505,-0.0610375752825022
-0.7512092590349505,-0.06064363947003171
-0.7511860090349505,-0.05961940635760742
-0.7511627590349506,-0.05906789622015075
-0.7511395090349505,-0.05780730162024406
-0.7511162590349505,-0.05717700432029055
-0.7510930090349506,-0.05678306850782149
-0.7510697590349505,-0.05631034553285705
-0.7510465090349505,-0.05607398404537389
-0.7510232590349506,-0.05607398404537389
-0.7510000090349505,-0.05568004823290168
-0.7509767590349505,-0.05520732525793881
-0.7509535090349505,-0.05457702795798602
-0.7509302590349505,-0.05402551782052662
-0.7509070090349506,-0.05363158200805756
-0.7508837590349505,-0.05331643335808045
-0.7508605090349505,-0.05244977457064411
-0.7508372590349506,-0.05181947727069362
-0.7508140090349505,-0.05055888267078919
-0.7507907590349505,-0.04937707523337542
-0.7507675090349506,-0.04827405495846195
-0.7507442590349505,-0.04701346035854835
-0.7507210090349505,-0.04591044008363498
-0.7506977590349505,-0.04472863264622351
-0.7506745090349505,-0.04354682520880988
-0.7506512590349506,-0.0423650177714026
-0.7506280090349505,-0.04157714614645946
-0.7506047590349505,-0.04086806168401143
-0.7505815090349506,-0.04023776438406094
-0.7505582590349505,-0.03992261573408398
-0.7505350090349505,-0.03937110559662471
-0.7505117590349506,-0.03842565964669886
-0.7504885090349505,-0.03748021369676251
-0.7504652590349505,-0.03645598058434296
-0.7504420090349505,-0.03590447044688427
-0.7504187590349505,-0.03527417314693005
-0.7503955090349506,-0.03448630152199194
-0.7503722590349505,-0.03409236570952001
-0.7503490090349505,-0.0333044940845772
-0.7503257590349506,-0.03235904813465146
-0.7503025090349505,-0.03149238934721623
-0.7502792590349505,-0.03046815623479138
-0.7502560090349506,-0.02944392312237182
-0.7502327590349505,-0.02865605149742368
-0.7502095090349505,-0.02771060554749782
-0.7501862590349505,-0.02684394676006274
-0.7501630090349505,-0.02629243662260319
-0.7501397590349506,-0.02581971364764032
-0.7501165090349505,-0.02479548053521619
-0.7500932590349505,-0.02416518323526211
-0.7500700090349506,-0.02345609877281769
-0.7500467590349504,-0.02314095012283886
-0.7500235090349505,-0.02282580147286362
-0.7500002590349506,-0.02274701431036981
-0.7499770090349505,-0.02188035552293429
-0.7499537590349505,-0.02180156836044034
-0.7499305090349505,-0.02156520687295804
-0.7499072590349505,-0.02125005822298122
-0.7498840090349506,-0.02101369673549978
-0.7498607590349505,-0.02046218659804067
-0.7498375090349505,-0.02038339943554556
-0.7498142590349506,-0.01983188929808888
-0.7497910090349504,-0.01975310213559005
-0.7497677590349505,-0.0187288690231705
-0.7497445090349506,-0.01896523051065194
-0.7497212590349505,-0.01833493321069933
-0.7496980090349505,-0.01801978456072351
-0.7496747590349505,-0.01738948726077072
-0.7496515090349505,-0.01723191293578209
-0.7496282590349506,-0.01699555144830066
-0.7496050090349505,-0.01605010549837105
-0.7495817590349505,-0.01597131833587695
-0.7495585090349506,-0.01549859536091322
-0.7495352590349504,-0.01573495684839122
-0.7495120090349505,-0.01478951089846547
-0.7494887590349506,-0.01478951089846547
-0.7494655090349505,-0.01384406494853601
-0.7494422590349505,-0.01368649062354799
-0.7494190090349505,-0.0129774061611011
-0.7493957590349505,-0.01305619332359377
-0.7493725090349506,-0.01226832169865565
-0.7493492590349505,-0.01226832169865422
-0.7493260090349505,-0.01155923723620733
-0.7493027590349506,-0.01124408858623151
-0.7492795090349504,-0.01085015277375901
-0.7492562590349505,-0.01045621696128995
-0.7492330090349506,-0.01029864263630233
-0.7492097590349505,-0.009904706823830836
-0.7491865090349505,-0.009668345336349402
-0.7491632590349505,-0.009195622361384381
-0.7491400090349505,-0.008959260873900223
-0.7491167590349506,-0.00793502776148056
-0.7490935090349505,-0.007619879111502303
-0.7490702590349505,-0.007068368974043615
-0.7490470090349506,-0.006595645999079885
-0.7490237590349504,-0.005256264236677633
-0.7490005090349505,-0.004783541261714763
-0.7489772590349506,-0.004074456799270458
-0.7489540090349505,-0.003207798011831109
-0.7489307590349505,-0.00234113922439918
-0.7489075090349505,-0.001632054761950719
-0.7488842590349505,-0.0001350986745608438
-0.7488610090349506,0.0009679216003525201
-0.7488377590349505,0.002386090525248408
-0.7488145090349505,0.003725472287648079
-0.7487912590349506,0.004749705400069495
-0.7487680090349504,0.006089087162474007
-0.7487447590349505,0.006876958787412124
-0.7487215090349505,0.0081375533873187
-0.7486982590349505,0.008689063524777102
-0.7486750090349505,0.009082999337246161
-0.7486517590349505,0.009555722312211468
-0.7486285090349505,0.009555722312211181
-0.7486052590349506,0.009398147987223557
-0.7485820090349505,0.009319360824729173
-0.7485587590349505,0.009713296637199664
-0.7485355090349506,0.009634509474705852
-0.7485122590349504,0.009792083799695196
-0.7484890090349505,0.01018601961216425
-0.7484657590349505,0.01073752974962452
-0.7484425090349505,0.01160418853706028
-0.7484192590349505,0.01278599597446746
-0.7483960090349505,0.01499203652430436
-0.7483727590349505,0.01633141828670759
-0.7483495090349506,0.01822231018655907
-0.7483262590349505,0.01956169194896218
-0.7483030090349505,0.02121622236133835
-0.7482797590349506,0.02200409398627647
-0.7482565090349504,0.02310711426119815
-0.7482332590349505,0.02350105007366721
-0.7482100090349505,0.02405256021112661
-0.7481867590349505,0.02444649602359725
-0.7481635090349505,0.02491921899856012
-0.7481402590349505,0.02539194197352557
-0.7481170090349505,0.0258646649484917
-0.7480937590349506,0.02665253657342982
-0.7480705090349505,0.02720404671088994
-0.7480472590349505,0.02822827982331322
-0.7480240090349506,0.02909493861074515
-0.7480007590349504,0.03043432037315256
-0.7479775090349505,0.03169491497305366
-0.7479542590349505,0.03256157376049031
-0.7479310090349505,0.03342823254792611
-0.7479077590349505,0.0346888271478271
-0.7478845090349505,0.03539791161027628
-0.7478612590349505,0.0365009318851962
-0.7478380090349506,0.037840313647591
-0.7478147590349505,0.03933726973498131
-0.7477915090349505,0.04004635419742819
-0.7477682590349506,0.04146452312231691
-0.7477450090349504,0.04240996907225555
-0.7477217590349505,0.04359177650966273
-0.7476985090349505,0.04406449948462875
-0.7476752590349505,0.04485237110956916
-0.7476520090349505,0.04532509408453203
-0.7476287590349505,0.04579781705949759
-0.7476055090349505,0.0461917528719688
-0.7475822590349506,0.04658568868443786
-0.7475590090349505,0.04697962449690907
-0.7475357590349505,0.04713719882189726
-0.7475125090349506,0.048082644771823
-0.7474892590349504,0.04855536774679504
-0.7474660090349505,0.04965838802170841
-0.7474427590349505,0.04997353667168652
-0.7474195090349505,0.05091898262161481
-0.7473962590349505,0.05131291843408387
-0.7473730090349505,0.05273108735897836
-0.7473497590349505,0.05344017182142811
-0.7473265090349506,0.05501591507130434
-0.7473032590349505,0.05540985088377781
-0.7472800090349505,0.05667044548368338
-0.7472567590349506,0.05730074278363388
-0.7472335090349504,0.05816740157107469
-0.7472102590349505,0.05911284752100043
-0.7471870090349505,0.06021586779591921
-0.7471637590349505,0.06092495225836581
-0.7471405090349506,0.06147646239582249
-0.7471172590349505,0.06250069550824677
-0.7470940090349505,0.0633673542956843
-0.7470707590349506,0.06470673605807908
-0.7470475090349505,0.06525824619554033
-0.7470242590349505,0.0666764151204341
-0.7470010090349506,0.0673854995828784
-0.7469777590349505,0.06817337120782369
-0.7469545090349505,0.06864609418278655
-0.7469312590349505,0.06935517864523344
-0.7469080090349505,0.07030062459516388
-0.7468847590349506,0.07093092189511437
-0.7468615090349505,0.0716400063575624
-0.7468382590349505,0.07219151649502267
-0.7468150090349506,0.07305817528245459
-0.7467917590349505,0.07321574960744437
-0.7467685090349505,0.07384604690739716
-0.7467452590349506,0.07408240839487859
-0.7467220090349505,0.07479149285732663
-0.7466987590349505,0.07487028001982043
-0.7466755090349505,0.07494906718231464
-0.7466522590349505,0.07557936448226772
-0.7466290090349506,0.07573693880725534
-0.7466057590349505,0.07628844894471432
-0.7465825090349505,0.07636723610720941
-0.7465592590349506,0.0769187462446661
-0.7465360090349505,0.07731268205713687
-0.7465127590349505,0.07778540503210218
-0.7464895090349506,0.07841570233205268
-0.7464662590349505,0.07888842530702071
-0.7464430090349505,0.07920357395699595
-0.7464197590349505,0.07983387125694885
-0.7463965090349505,0.08030659423191425
-0.7463732590349506,0.08077931720687712
-0.7463500090349505,0.08109446585685443
-0.7463267590349505,0.0818035503193016
-0.7463035090349506,0.08196112464428922
-0.7462802590349505,0.08259142194424114
-0.7462570090349505,0.08274899626923049
-0.7462337590349506,0.08267020910673668
-0.7462105090349505,0.08298535775671192
-0.7461872590349505,0.08274899626923049
-0.7461640090349505,0.08298535775671279
-0.7461407590349505,0.08274899626923149
-0.7461175090349506,0.08330050640668818
-0.7460942590349505,0.08290657059421869
-0.7460710090349505,0.08290657059421883
-0.7460477590349506,0.08298535775671265
-0.7460245090349505,0.08306414491920674
-0.7460012590349505,0.08322171924419508
-0.7459780090349506,0.0836156550566642
-0.7459547590349505,0.08400959086913727
-0.7459315090349505,0.08432473951911251
-0.7459082590349505,0.08440352668160661
-0.7458850090349505,0.08424595235661726
-0.7458617590349506,0.08361565505666678
-0.7458385090349505,0.08322171924419508
-0.7458152590349505,0.08235506045675842
-0.7457920090349506,0.0814884016693265
-0.7457687590349505,0.08070053004438531
-0.7457455090349505,0.07999144558193699
-0.7457222590349506,0.07936114828198644
-0.7456990090349505,0.07888842530701698
-0.7456757590349505,0.07817934084457268
-0.7456525090349505,0.07747025638212579
-0.7456292590349505,0.07668238475718381
-0.7456060090349506,0.07613087461972712
-0.7455827590349505,0.07518542866979694
-0.7455595090349505,0.07479149285732561
-0.7455362590349506,0.07439755704485657
-0.7455130090349505,0.07368847258241025
-0.7454897590349505,0.07305817528245617
-0.7454665090349506,0.07219151649502424
-0.7454432590349505,0.07187636784504384
-0.7454200090349505,0.0716400063575624
-0.7453967590349505,0.0716400063575624
-0.7453735090349505,0.07132485770758587
-0.7453502590349506,0.07124607054509205
-0.7453270090349505,0.07100970905760962
-0.7453037590349505,0.07116728338259738
-0.7452805090349506,0.07093092189511595
-0.7452572590349505,0.07108849622010342
-0.7452340090349505,0.07132485770758601
-0.7452107590349506,0.07171879352005507
-0.7451875090349505,0.07211272933252728
-0.7451642590349505,0.07219151649502109
-0.7451410090349505,0.07211272933252699
-0.7451177590349505,0.0721915164950208
-0.7450945090349506,0.07203394217003319
-0.7450712590349505,0.0718763678450447
-0.7450480090349505,0.0714824320325745
-0.7450247590349506,0.07164000635756211
-0.7450015090349505,0.07156121919506844
-0.7449782590349505,0.0715612191950683
-0.7449550090349506,0.07164000635756211
-0.7449317590349505,0.0714824320325745
-0.7449085090349505,0.0716400063575624
-0.7448852590349505,0.0715612191950683
-0.7448620090349505,0.07211272933252728
-0.7448387590349506,0.0722703036575149
-0.7448155090349505,0.07274302663247978
-0.7447922590349505,0.07258545230749201
-0.7447690090349506,0.07282181379497345
-0.7447457590349504,0.07305817528245818
-0.7447225090349505,0.07360968541991486
-0.7446992590349506,0.07337332393243343
-0.7446760090349505,0.07368847258240896
-0.7446527590349505,0.07368847258240896
-0.7446295090349505,0.07376725974490306
-0.7446062590349505,0.07353089825742076
-0.7445830090349506,0.07353089825742076
-0.7445597590349505,0.07400362123238535
-0.7445365090349505,0.07392483406989039
-0.7445132590349506,0.07345211109492752
-0.7444900090349504,0.07329453676993704
-0.7444667590349505,0.07290060095746798
-0.7444435090349506,0.07329453676993704
-0.7444202590349505,0.07274302663247964
-0.7443970090349505,0.07266423946998568
-0.7443737590349505,0.07329453676993847
-0.7443505090349505,0.07368847258241025
-0.7443272590349506,0.07439755704485455
-0.7443040090349505,0.07557936448226743
-0.7442807590349505,0.07636723610720841
-0.7442575090349506,0.07676117191967818
-0.7442342590349504,0.07652481043219718
-0.7442110090349505,0.07668238475718481
-0.7441877590349506,0.07644602326970337
-0.7441645090349505,0.07628844894471273
-0.7441412590349505,0.07542179015727923
-0.7441180090349505,0.07518542866979694
-0.7440947590349505,0.07479149285732561
-0.7440715090349506,0.07439755704485657
-0.7440482590349505,0.07431876988236175
-0.7440250090349505,0.07416119555737355
-0.7440017590349506,0.07447634420734937
-0.7439785090349504,0.074870280019821
-0.7439552590349505,0.07502785434480874
-0.7439320090349506,0.0754217901572778
-0.7439087590349505,0.07557936448226829
-0.7438855090349505,0.07605208745723116
-0.7438622590349505,0.07620966178222022
-0.7438390090349505,0.07636723610720828
-0.7438157590349506,0.07628844894471445
-0.7437925090349505,0.07613087461972612
-0.7437692590349505,0.07589451313224382
-0.7437460090349506,0.07534300299478613
-0.7437227590349504,0.07510664150730112
-0.7436995090349505,0.07463391853233814
-0.7436762590349506,0.0743187698823629
-0.7436530090349505,0.07423998271986736
-0.7436297590349505,0.07408240839487974
-0.7436065090349505,0.07368847258240896
-0.7435832590349505,0.07030062459515471
-0.7435600090349506,0.06588854349550113
-0.7435367590349505,0.06289463132071726
-0.7435135090349505,0.06045222928340022
-0.7434902590349506,0.05824618873356936
-0.7434670090349504,0.05651287115868888
-0.7434437590349505,0.05477955358382491
-0.7434205090349505,0.05312502317144699
-0.7433972590349505,0.05210079005902356
-0.7433740090349505,0.0509977697841102
-0.7433507590349505,0.0499735366716848
-0.7433275090349505,0.04910687788424786
-0.7433042590349506,0.0480826447718283
-0.7432810090349505,0.04753113463436776
-0.7432577590349505,0.04705841165940317
-0.7432345090349506,0.04650690152194648
-0.7432112590349504,0.04571902989700235
-0.7431880090349505,0.0454038812470271
-0.7431647590349505,0.0456402427345081
-0.7431415090349505,0.04493115827206154
-0.7431182590349505,0.04445843529709867
-0.7430950090349505,0.04390692515963912
-0.7430717590349505,0.04374935083465049
-0.7430485090349506,0.04351298934716906
-0.7430252590349505,0.04335541502218043
-0.7430020090349505,0.04280390488472174
-0.7429787590349506,0.04225239474726506
-0.7429555090349504,0.04209482042227285
-0.7429322590349505,0.04154331028481617
-0.7429090090349505,0.04138573595982769
-0.7428857590349505,0.04122816163483877
-0.7428625090349505,0.0406766514973821
-0.7428392590349505,0.04059786433488699
-0.7428160090349505,0.04004635419742762
-0.7427927590349506,0.03973120554745237
-0.7427695090349505,0.0395736312224636
-0.7427462590349505,0.03910090824749901
-0.7427230090349506,0.0390221210850052
-0.7426997590349504,0.03847061094754565
-0.7426765090349505,0.03831303662255803
-0.7426532590349505,0.03807667513507559
-0.7426300090349505,0.03799788797258077
-0.7426067590349505,0.0375251649976179
-0.7425835090349505,0.03784031364759344
-0.7425602590349505,0.03728880351013475
-0.7425370090349506,0.03728880351013475
-0.7425137590349505,0.03728880351013475
-0.7424905090349505,0.03713122918514655
-0.7424672590349506,0.03697365486015893
-0.7424440090349504,0.03673729337267548
-0.7424207590349505,0.03657971904768786
-0.7423975090349505,0.03665850621018168
-0.7423742590349505,0.03650093188519362
-0.7423510090349505,0.03642214472269981
-0.7423277590349505,0.03610699607272327
-0.7423045090349505,0.03602820891022932
-0.7422812590349506,0.03610699607272313
-0.7422580090349505,0.03587063458524098
-0.7422347590349505,0.03547669877277049
-0.7422115090349506,0.03539791161027656
-0.7421882590349504,0.03524033728528608
-0.7421650090349505,0.03468882714782939
-0.7421417590349505,0.03437367849785214
-0.7421185090349505,0.03390095552288856
-0.7420952590349505,0.03397974268538236
-0.7420720090349505,0.03358580687291202
-0.7420487590349505,0.03334944538542886
-0.7420255090349506,0.03287672241046599
-0.7420022590349505,0.03303429673545333
-0.7419790090349505,0.03303429673545333
-0.7419557590349506,0.03311308389794714
-0.7419325090349504,0.03327065822293505
-0.7419092590349505,0.03311308389794743
-0.7418860090349505,0.03287672241046513
-0.7418627590349505,0.03287672241046427
-0.7418395090349506,0.0324039994355014
-0.7418162590349505,0.03216763794801825
-0.7417930090349505,0.03208885078552372
-0.7417697590349506,0.03185248929804228
-0.7417465090349505,0.03137976632307726
-0.7417232590349505,0.03106461767310087
-0.7417000090349506,0.03090704334811325
-0.7416767590349505,0.03067068186062952
-0.7416535090349505,0.03043432037314797
-0.7416302590349505,0.03043432037314797
