data/raw/daniel/waveforms scope/TIA 2.1 Mohm output.csv

#Digilent WaveForms Oscilloscope Acquisition
#Device Name: Discovery3
#Serial Number: SN:210415BDFD41
#Date Time: 2026-05-08 11:48:04.872.981.800
#Sample rate: 57736.7Hz
#Samples: 32768
#Trigger: Source: Channel 1 Type: Edge Condition: Rising Level: 114.6 mV Hyst.: Auto HoldOff: 0 s
#Channel 1: Range: 100 mV/div Offset: -250 mV Sample Mode: Average

Time (s),Channel 1 (V)
-0.5607335762309165,0.3819869214144259
-0.5607162562309164,0.3817505599269416
-0.5606989362309164,0.3811202626269899
-0.5606816162309164,0.3805687524895312
-0.5606642962309164,0.3802536038395548
-0.5606469762309164,0.3797020937020971
-0.5606296562309163,0.3790717964021418
-0.5606123362309163,0.3786778605896708
-0.5605950162309163,0.3781263504522133
-0.5605776962309164,0.3776536274772491
-0.5605603762309164,0.3774172659897665
-0.5605430562309164,0.3770233301772967
-0.5605257362309164,0.3763142457148498
-0.5605084162309164,0.3762354585523559
-0.5604910962309164,0.3759990970648738
-0.5604737762309164,0.3752900126024278
-0.5604564562309164,0.3749748639524513
-0.5604391362309165,0.3748960767899563
-0.5604218162309165,0.3746597153024749
-0.5604044962309164,0.3743445666524967
-0.5603871762309164,0.3740294180025209
-0.5603698562309164,0.373320333540074
-0.5603525362309164,0.3731627592150861
-0.5603352162309163,0.3730051848900956
-0.5603178962309163,0.3724536747526386
-0.5603005762309163,0.3723748875901445
-0.5602832562309163,0.3722961004276507
-0.5602659362309164,0.3722961004276507
-0.5602486162309164,0.3722961004276507
-0.5602312962309164,0.3722961004276507
-0.5602139762309164,0.3719809517776743
-0.5601966562309164,0.3720597389401682
-0.5601793362309164,0.3715082288027107
-0.5601620162309164,0.3715870159652035
-0.5601446962309165,0.3721385261026605
-0.5601273762309165,0.3722961004276502
-0.5601100562309164,0.3722173132651564
-0.5600927362309164,0.3721385261026625
-0.5600754162309164,0.372532461915133
-0.5600580962309164,0.372532461915133
-0.5600407762309164,0.3726900362401209
-0.5600234562309163,0.3728476105651086
-0.5600061362309163,0.3726112490776259
-0.5599888162309163,0.372296100427651
-0.5599714962309164,0.3723748875901453
-0.5599541762309164,0.3726112490776268
-0.5599368562309164,0.3724536747526389
-0.5599195362309164,0.3722173132651566
-0.5599022162309164,0.3722961004276507
-0.5598848962309164,0.3720597389401689
-0.5598675762309164,0.3722961004276503
-0.5598502562309164,0.3726900362401198
-0.5598329362309165,0.3731627592150841
-0.5598156162309165,0.3731627592150858
-0.5597982962309164,0.3731627592150858
-0.5597809762309164,0.3731627592150858
-0.5597636562309164,0.3732415463775799
-0.5597463362309164,0.3733203335400738
-0.5597290162309163,0.3733203335400753
-0.5597116962309163,0.3735566950275566
-0.5596943762309163,0.3736354821900504
-0.5596770562309163,0.3736354821900508
-0.5596597362309164,0.3738718436775332
-0.5596424162309164,0.3741869923275092
-0.5596250962309164,0.3742657794900032
-0.5596077762309164,0.3745021409774855
-0.5595904562309164,0.3745021409774855
-0.5595731362309164,0.3745809281399794
-0.5595558162309164,0.3748172896274615
-0.5595384962309164,0.3751324382774371
-0.5595211762309165,0.3752112254399321
-0.5595038562309164,0.3751324382774385
-0.5594865362309164,0.3752112254399324
-0.5594692162309164,0.3755263740899088
-0.5594518962309164,0.3752900126024265
-0.5594345762309164,0.3752112254399326
-0.5594172562309163,0.3752900126024259
-0.5593999362309163,0.3751324382774375
-0.5593826162309163,0.3748960767899572
-0.5593652962309164,0.375211225439932
-0.5593479762309164,0.3749748639524497
-0.5593306562309164,0.3747385024649678
-0.5593133362309164,0.3748172896274619
-0.5592960162309164,0.3747385024649678
-0.5592786962309164,0.3746597153024738
-0.5592613762309164,0.3752112254399314
-0.5592440562309164,0.3752900126024262
-0.5592267362309165,0.3752112254399327
-0.5592094162309165,0.37536879976492
-0.5591920962309164,0.3756051612524039
-0.5591747762309164,0.3761566713898616
-0.5591574562309164,0.3758415227398852
-0.5591401362309164,0.3763930328773429
-0.5591228162309163,0.376314245714849
-0.5591054962309163,0.3761566713898619
-0.5590881762309163,0.3762354585523557
-0.5590708562309163,0.3762354585523552
-0.5590535362309164,0.3759990970648724
-0.5590362162309164,0.3754475869274145
-0.5590188962309164,0.3753687997649206
-0.5590015762309164,0.3752112254399324
-0.5589842562309164,0.3751324382774385
-0.5589669362309164,0.3751324382774383
-0.5589496162309164,0.3749748639524504
-0.5589322962309164,0.3749748639524501
-0.5589149762309165,0.3751324382774378
-0.5588976562309164,0.3752900126024268
-0.5588803362309164,0.3754475869274147
-0.5588630162309164,0.3752900126024265
-0.5588456962309164,0.3756051612524029
-0.5588283762309164,0.3759203099023787
-0.5588110562309163,0.3759990970648734
-0.5587937362309163,0.3759990970648734
-0.5587764162309163,0.3759990970648739
-0.5587590962309164,0.3761566713898614
-0.5587417762309164,0.3760778842273673
-0.5587244562309164,0.3759990970648734
-0.5587071362309164,0.3759990970648734
-0.5586898162309164,0.3760778842273675
-0.5586724962309164,0.3756839484148977
-0.5586551762309164,0.3755263740899091
-0.5586378562309164,0.3756839484148964
-0.5586205362309165,0.3754475869274155
-0.5586032162309165,0.3752900126024271
-0.5585858962309164,0.3756839484148962
-0.5585685762309164,0.3752112254399324
-0.5585512562309164,0.3750536511149442
-0.5585339362309164,0.3746597153024744
-0.5585166162309163,0.3743445666524955
-0.5584992962309163,0.3740294180025177
-0.5584819762309163,0.3731627592150764
-0.5584646562309163,0.3705627828527755
-0.5584473362309164,0.3678052321654831
-0.5584300162309164,0.3656779787781426
-0.5584126962309164,0.3636295125532997
-0.5583953762309164,0.3617386206534413
-0.5583780562309164,0.360478026053538
-0.5583607362309164,0.3589810699661505
-0.5583434162309164,0.3577992625287384
-0.5583260962309164,0.3569326037413044
-0.5583087762309165,0.3559871577913754
-0.5582914562309165,0.3549629246789542
-0.5582741362309164,0.3541750530540066
-0.5582568162309164,0.353623542916549
-0.5582394962309164,0.3530720327790903
-0.5582221762309164,0.3522841611541507
-0.5582048562309163,0.3518902253416773
-0.5581875362309163,0.3514962895292063
-0.5581702162309163,0.3509447793917476
-0.5581528962309164,0.3503932692542897
-0.5581355762309164,0.3497629719543373
-0.5581182562309164,0.3493690361418675
-0.5581009362309164,0.3488963131669029
-0.5580836162309164,0.3487387388419148
-0.5580662962309164,0.348344803029445
-0.5580489762309164,0.3481084415419624
-0.5580316562309164,0.3477145057294929
-0.5580143362309165,0.3471629955920348
-0.5579970162309165,0.347084208429539
-0.5579796962309164,0.347005421267044
-0.5579623762309164,0.3466902726170681
-0.5579450562309164,0.3462963368045976
-0.5579277362309164,0.3459024009921272
-0.5579104162309164,0.3460599753171151
-0.5578930962309163,0.3457448266671375
-0.5578757762309163,0.3453508908546667
-0.5578584562309163,0.3448781678797031
-0.5578411362309164,0.3444842320672336
-0.5578238162309164,0.3446418063922208
-0.5578064962309164,0.344247870579751
-0.5577891762309164,0.3447205935547156
-0.5577718562309164,0.3436963604422942
-0.5577545362309164,0.3439327219297742
-0.5577372162309164,0.3434599989548109
-0.5577198962309164,0.3433024246298224
-0.5577025762309165,0.3429084888173528
-0.5576852562309165,0.3425933401673767
-0.5576679362309164,0.342514553004881
-0.5576506162309164,0.342593340167375
-0.5576332962309164,0.3421206171924104
-0.5576159762309164,0.3419630428674224
-0.5575986562309163,0.3419630428674207
-0.5575813362309163,0.3415691070549519
-0.5575640162309163,0.341647894217444
-0.5575466962309163,0.3411751712424801
-0.5575293762309164,0.3406236611050223
-0.5575120562309164,0.3405448739425284
-0.5574947362309164,0.3402297252925519
-0.5574774162309164,0.3401509381300578
-0.5574600962309164,0.3399933638050699
-0.5574427762309164,0.3401509381300575
-0.5574254562309164,0.3398357894800826
-0.5574081362309165,0.3397570023175876
-0.5573908162309165,0.339914576642575
-0.5573734962309164,0.3396782151550925
-0.5573561762309164,0.3392842793426227
-0.5573388562309164,0.3393630665051168
-0.5573215362309164,0.3393630665051168
-0.5573042162309164,0.3392054921801289
-0.5572868962309163,0.3390479178551404
-0.5572695762309163,0.3390479178551402
-0.5572522562309163,0.3389691306926461
-0.5572349362309164,0.338811556367658
-0.5572176162309164,0.3387327692051639
-0.5572002962309164,0.3386539820426699
-0.5571829762309164,0.3386539820426699
-0.5571656562309164,0.338496407717682
-0.5571483362309164,0.3378661104177301
-0.5571310162309164,0.3381024719052108
-0.5571136962309164,0.3376297489302484
-0.5570963762309165,0.3373933874427652
-0.5570790562309165,0.337472174605258
-0.5570617362309164,0.3372358131177757
-0.5570444162309164,0.3369994516302938
-0.5570270962309164,0.3367630901428115
-0.5570097762309164,0.3365267286553297
-0.5569924562309163,0.3362115800053516
-0.5569751362309163,0.3359752185178708
-0.5569578162309163,0.3360540056803646
-0.5569404962309163,0.3360540056803639
-0.5569231762309164,0.3356600698678942
-0.5569058562309164,0.3356600698678942
-0.5568885362309164,0.3356600698678942
-0.5568712162309164,0.3353449212179178
-0.5568538962309164,0.3351085597304359
-0.5568365762309164,0.3350297725679415
-0.5568192562309164,0.3346358367554723
-0.5568019362309164,0.3350297725679399
-0.5567846162309165,0.3348721982429537
-0.5567672962309164,0.3347934110804593
-0.5567499762309164,0.3349509854054472
-0.5567326562309164,0.334793411080459
-0.5567153362309164,0.3347146239179649
-0.5566980162309164,0.3349509854054468
-0.5566806962309163,0.3343994752679885
-0.5566633762309163,0.3343994752679877
-0.5566460562309163,0.3341631137805057
-0.5566287362309164,0.3340055394555182
-0.5566114162309164,0.3340843266180116
-0.5565940962309164,0.3337691779680357
-0.5565767762309164,0.3337691779680357
-0.5565594562309164,0.3337691779680357
-0.5565421362309164,0.3336116036430478
-0.5565248162309164,0.3331388806680838
-0.5565074962309164,0.3329813063430953
-0.5564901762309165,0.3328237320181071
-0.5564728562309165,0.3328237320181066
-0.5564555362309164,0.3327449448556119
-0.5564382162309164,0.3324297962056361
-0.5564208962309164,0.3324297962056361
-0.5564035762309164,0.3322722218806481
-0.5563862562309163,0.3321934347181533
-0.5563689362309163,0.3321146475556584
-0.5563516162309163,0.3317994989056844
-0.5563342962309163,0.3321146475556593
-0.5563169762309164,0.3319570732306713
-0.5562996562309164,0.3318782860681773
-0.5562823362309164,0.3318782860681773
-0.5562650162309164,0.3317207117431891
-0.5562476962309164,0.331878286068177
-0.5562303762309164,0.3317994989056834
-0.5562130562309164,0.3314843502557074
-0.5561957362309164,0.331405563093213
-0.5561784162309165,0.3310116272807437
-0.5561610962309164,0.3309328401182484
-0.5561437762309164,0.3310904144432363
-0.5561264562309164,0.3313267759307186
-0.5561091362309164,0.3309328401182481
-0.5560918162309164,0.3307752657932602
-0.5560744962309163,0.3309328401182473
-0.5560571762309163,0.3306964786307667
-0.5560398562309163,0.3309328401182476
-0.5560225362309164,0.3307752657932587
-0.5560052162309164,0.3300661813308118
-0.5559878962309164,0.3294358840308602
-0.5559705762309164,0.3290419482183897
-0.5559532562309164,0.3288843738934015
-0.5559359362309164,0.3284904380809318
-0.5559186162309164,0.328648012405919
-0.5559012962309164,0.3285692252434254
-0.5558839762309165,0.3287267995684128
-0.5558666562309165,0.328884373893401
-0.5558493362309164,0.3290419482183899
-0.5558320162309164,0.3291207353808838
-0.5558146962309164,0.3295146711933543
-0.5557973762309164,0.3295146711933543
-0.5557800562309163,0.3294358840308598
-0.5557627362309163,0.3293570968683656
-0.5557454162309163,0.3291995225433765
-0.5557280962309163,0.328805586730907
-0.5557107762309164,0.328569225243425
-0.5556934562309164,0.3284904380809308
-0.5556761362309164,0.3283328637559428
-0.5556588162309164,0.3281752894309546
-0.5556414962309164,0.3280965022684607
-0.5556241762309164,0.3280965022684605
-0.5556068562309164,0.3277813536184847
-0.5555895362309164,0.3280177151059656
-0.5555722162309165,0.3280177151059664
-0.5555548962309165,0.3277813536184854
-0.5555375762309164,0.3275449921310019
-0.5555202562309164,0.3273874178060137
-0.5555029362309164,0.3271510563185313
-0.5554856162309164,0.3272298434810252
-0.5554682962309163,0.3269934819935428
-0.5554509762309163,0.3269146948310485
-0.5554336562309163,0.3267571205060616
-0.5554163362309164,0.3269934819935437
-0.5553990162309164,0.3273086306435202
-0.5553816962309164,0.3277025664559901
-0.5553643762309164,0.327623779293496
-0.5553470562309164,0.3277025664559901
-0.5553297362309164,0.3279389279434719
-0.5553124162309164,0.3280965022684603
-0.5552950962309164,0.3277813536184853
-0.5552777762309165,0.3276237792934965
-0.5552604562309165,0.327623779293496
-0.5552431362309164,0.3275449921310014
-0.5552258162309164,0.3273086306435195
-0.5552084962309164,0.3271510563185313
-0.5551911762309164,0.3266783333435667
-0.5551738562309163,0.3265995461810718
-0.5551565362309163,0.3264419718560839
-0.5551392162309163,0.3262843975310948
-0.5551218962309163,0.3258904617186256
-0.5551045762309164,0.3258116745561318
-0.5550872562309164,0.325890461718625
-0.5550699362309164,0.3254965259061552
-0.5550526162309164,0.325338951581167
-0.5550352962309164,0.3247874414437093
-0.5550179762309164,0.3249450157686962
-0.5550006562309164,0.3250238029311904
-0.5549833362309164,0.324866228606203
-0.5549660162309165,0.3245510799562272
-0.5549486962309165,0.324787441443707
-0.5549313762309164,0.3247874414437077
-0.5549140562309164,0.3244722927937319
-0.5548967362309164,0.3243147184687437
-0.5548794162309164,0.3243147184687437
-0.5548620962309163,0.3241571441437552
-0.5548447762309163,0.3240783569812603
-0.5548274562309163,0.3237632083312842
-0.5548101362309164,0.3235268468438026
-0.5547928162309164,0.3234480596813082
-0.5547754962309164,0.3232116981938263
-0.5547581762309164,0.3230541238688381
-0.5547408562309164,0.3226601880563676
-0.5547235362309164,0.3228965495438495
-0.5547062162309164,0.3226601880563681
-0.5546888962309164,0.3223450394063924
-0.5546715762309165,0.3222662522438974
-0.5546542562309165,0.3220298907564156
-0.5546369362309164,0.3221086779189091
-0.5546196162309164,0.322187465081403
-0.5546022962309164,0.322187465081403
-0.5545849762309164,0.3218723164314266
-0.5545676562309164,0.3217147421064387
-0.5545503362309163,0.3217147421064372
-0.5545330162309163,0.3213995934564617
-0.5545156962309163,0.3213208062939672
-0.5544983762309164,0.3209268704814974
-0.5544810562309164,0.3209268704814983
-0.5544637362309164,0.321399593456462
-0.5544464162309164,0.3212420191314738
-0.5544290962309164,0.3212420191314738
-0.5544117762309164,0.321005657643992
-0.5543944562309164,0.3206905089940157
-0.5543771362309164,0.3206117218315213
-0.5543598162309165,0.320611721831521
-0.5543424962309165,0.3204541475065336
-0.5543251762309164,0.3206905089940146
-0.5543078562309164,0.3203753603440387
-0.5542905362309164,0.3203753603440387
-0.5542732162309164,0.3202177860190508
-0.5542558962309163,0.31982385020658
-0.5542385762309163,0.3198238502065797
-0.5542212562309163,0.3197450630440859
-0.5542039362309163,0.3197450630440862
-0.5541866162309164,0.3199026373690746
-0.5541692962309164,0.3202177860190505
-0.5541519762309164,0.3199814245315682
-0.5541346562309164,0.3199814245315682
-0.5541173362309164,0.3196662758815924
-0.5541000162309164,0.3196662758815918
-0.5540826962309164,0.319587488719098
-0.5540653762309165,0.3192723400691225
-0.5540480562309165,0.3191147657441337
-0.5540307362309164,0.3189571914191439
-0.5540134162309164,0.3184056812816862
-0.5539960962309164,0.318248106956698
-0.5539787762309164,0.3183268941191921
-0.5539614562309164,0.3182481069566982
-0.5539441362309163,0.3179329583067208
-0.5539268162309163,0.3176965968192396
-0.5539094962309163,0.3177753839817336
-0.5538921762309164,0.3178541711442274
-0.5538748562309164,0.3177753839817336
-0.5538575362309164,0.3178541711442275
-0.5538402162309164,0.3179329583067216
-0.5538228962309164,0.3176965968192398
-0.5538055762309164,0.3176965968192393
-0.5537882562309164,0.3173814481692634
-0.5537709362309164,0.3173814481692629
-0.5537536162309165,0.3174602353317568
-0.5537362962309165,0.3175390224942507
-0.5537189762309164,0.3175390224942506
-0.5537016562309164,0.3172238738442747
-0.5536843362309164,0.3172238738442747
-0.5536670162309164,0.3168299380318049
-0.5536496962309163,0.3169087251942996
-0.5536323762309163,0.3171450866817803
-0.5536150562309163,0.3170662995192865
-0.5535977362309163,0.3170662995192858
-0.5535804162309164,0.316672363706816
-0.5535630962309164,0.316672363706816
-0.5535457762309164,0.316672363706816
-0.5535284562309164,0.3167511508693101
-0.5535111362309164,0.316908725194298
-0.5534938162309164,0.3165147893818285
-0.5534764962309164,0.3163572150568399
-0.5534591762309164,0.3159632792443706
-0.5534418562309165,0.3154117691069124
-0.5534245362309164,0.315490556269405
-0.5534072162309164,0.3158057049193809
-0.5533898962309164,0.3161208535693573
-0.5533725762309164,0.3158057049193809
-0.5533552562309164,0.3158057049193809
-0.5533379362309163,0.3155693434318989
-0.5533206162309163,0.3156481305943927
-0.5533032962309163,0.3156481305943925
-0.5532859762309164,0.3155693434318987
-0.5532686562309164,0.3156481305943922
-0.5532513362309164,0.3153329819444163
-0.5532340162309164,0.3147814718069576
-0.5532166962309164,0.3147026846444635
-0.5531993762309164,0.3147026846444635
-0.5531820562309164,0.3147814718069574
-0.5531647362309164,0.3146238974819699
-0.5531474162309165,0.3145451103194756
-0.5531300962309165,0.3142299616695001
-0.5531127762309164,0.3142299616694985
-0.5530954562309164,0.3139936001820166
-0.5530781362309164,0.3139148130195225
-0.5530608162309164,0.3138360258570286
-0.5530434962309163,0.3139936001820166
-0.5530261762309163,0.3139936001820163
-0.5530088562309163,0.3139148130195222
-0.5529915362309163,0.313836025857028
-0.5529742162309164,0.3135996643695466
-0.5529568962309164,0.3138360258570281
-0.5529395762309164,0.3136784515320402
-0.5529222562309164,0.3132845157195697
-0.5529049362309164,0.3132057285570758
-0.5528876162309164,0.3132845157195696
-0.5528702962309164,0.3132057285570758
-0.5528529762309164,0.3128905799071004
-0.5528356562309165,0.3128905799070992
-0.5528183362309164,0.3125754312571228
-0.5528010162309164,0.3125754312571228
-0.5527836962309164,0.3124966440946287
-0.5527663762309164,0.3124178569321346
-0.5527490562309164,0.3124178569321346
-0.5527317362309163,0.3121814954446515
-0.5527144162309163,0.3119451339571688
-0.5526970962309163,0.3116299853071928
-0.5526797762309164,0.3113936238197111
-0.5526624562309164,0.3113148366572172
-0.5526451362309164,0.3113148366572172
-0.5526278162309164,0.311157262332229
-0.5526104962309164,0.3112360494947231
-0.5525931762309164,0.3111572623322292
-0.5525758562309164,0.3113148366572169
-0.5525585362309164,0.3113148366572172
-0.5525412162309165,0.3111572623322296
-0.5525238962309165,0.3110784751697352
-0.5525065762309164,0.3108421136822521
-0.5524892562309164,0.3105269650322762
-0.5524719362309164,0.3106845393572644
-0.5524546162309164,0.3102906035447946
-0.5524372962309163,0.3099754548948192
-0.5524199762309163,0.3102906035447947
-0.5524026562309163,0.3105269650322753
-0.5523853362309163,0.3102906035447939
-0.5523680162309164,0.3102906035447932
-0.5523506962309164,0.3098966677323229
-0.5523333762309164,0.3096603062448411
-0.5523160562309164,0.3097390934073352
-0.5522987362309164,0.3096603062448413
-0.5522814162309164,0.3096603062448411
-0.5522640962309164,0.3095027319198532
-0.5522467762309164,0.3091087961073838
-0.5522294562309165,0.3091875832698762
-0.5522121362309165,0.3091875832698765
-0.5521948162309164,0.3088724346199001
-0.5521774962309164,0.308793647457406
-0.5521601762309164,0.3087148602949119
-0.5521428562309164,0.3087936474574058
-0.5521255362309163,0.3087148602949111
-0.5521082162309163,0.3084784988074296
-0.5520908962309163,0.3084784988074288
-0.5520735762309164,0.3082421373199472
-0.5520562562309164,0.3081633501574531
-0.5520389362309164,0.3080845629949591
-0.5520216162309164,0.3077694143449827
