data/raw/daniel/waveforms scope/TIA_LPF 2.1 Mohm output.csv

#Digilent WaveForms Oscilloscope Acquisition
#Device Name: Discovery3
#Serial Number: SN:210415BDFD41
#Date Time: 2026-05-08 11:54:55.844.141.930
#Sample rate: 160000Hz
#Samples: 32768
#Trigger: Source: Channel 1 Type: Edge Condition: Rising Level: 114.6 mV Hyst.: Auto HoldOff: 0 s
#Channel 1: Range: 100 mV/div Offset: -225 mV Sample Mode: Average

Time (s),Channel 1 (V)
-0.141004049744898,0.3923785778166525
-0.140997799744898,0.3922210034916639
-0.140991549744898,0.3919846420041825
-0.140985299744898,0.3916694933542056
-0.1409790497448979,0.3916694933542045
-0.140972799744898,0.3913543447042293
-0.140966549744898,0.3910391960542534
-0.140960299744898,0.3909604088917588
-0.1409540497448979,0.3908816217292638
-0.140947799744898,0.3906452602417824
-0.140941549744898,0.3904088987543005
-0.140935299744898,0.390330111591806
-0.1409290497448979,0.3902513244293113
-0.140922799744898,0.3899361757793355
-0.140916549744898,0.3899361757793355
-0.140910299744898,0.3896998142918532
-0.140904049744898,0.389699814291853
-0.140897799744898,0.3896210271293591
-0.140891549744898,0.3894634528043714
-0.140885299744898,0.3892270913168885
-0.140879049744898,0.389148304154394
-0.140872799744898,0.3889119426669121
-0.140866549744898,0.3889119426669121
-0.140860299744898,0.3885967940169363
-0.140854049744898,0.3886755811794294
-0.140847799744898,0.388439219691948
-0.140841549744898,0.3884392196919476
-0.1408352997448979,0.3883604325294532
-0.140829049744898,0.3882816453669594
-0.140822799744898,0.3882028582044654
-0.140816549744898,0.3879664967169829
-0.1408102997448979,0.3878089223919945
-0.140804049744898,0.3877301352295006
-0.140797799744898,0.3875725609045127
-0.140791549744898,0.3875725609045124
-0.140785299744898,0.3875725609045123
-0.140779049744898,0.3874937737420183
-0.140772799744898,0.3870210507670546
-0.140766549744898,0.387257412254536
-0.140760299744898,0.3869422636045595
-0.140754049744898,0.3868634764420655
-0.140747799744898,0.3866271149545841
-0.140741549744898,0.3864695406295953
-0.140735299744898,0.3864695406295948
-0.140729049744898,0.3863119663046071
-0.140722799744898,0.3863119663046064
-0.1407165497448979,0.3860756048171248
-0.140710299744898,0.3861543919796186
-0.140704049744898,0.3857604561671489
-0.140697799744898,0.3860756048171246
-0.1406915497448979,0.3856028818421601
-0.140685299744898,0.3856816690046541
-0.140679049744898,0.3856028818421601
-0.140672799744898,0.38560288184216
-0.140666549744898,0.3853665203546777
-0.140660299744898,0.3853665203546777
-0.140654049744898,0.3852877331921837
-0.140647799744898,0.3850513717047013
-0.140641549744898,0.3850513717047011
-0.140635299744898,0.3849725845422072
-0.140629049744898,0.3848150102172195
-0.140622799744898,0.3846574358922308
-0.140616549744898,0.3845786487297362
-0.140610299744898,0.3843422872422548
-0.140604049744898,0.3842635000797601
-0.1405977997448979,0.3841847129172667
-0.140591549744898,0.3843422872422543
-0.140585299744898,0.3842635000797604
-0.140579049744898,0.3841847129172661
-0.1405727997448979,0.3839483514297837
-0.140566549744898,0.3838695642672897
-0.140560299744898,0.3837907771047958
-0.140554049744898,0.3837119899423015
-0.1405477997448979,0.3836332027798076
-0.140541549744898,0.3837119899423015
-0.140535299744898,0.3834756284548197
-0.140529049744898,0.3833180541298311
-0.140522799744898,0.383396841292325
-0.140516549744898,0.3833180541298311
-0.140510299744898,0.3830816926423495
-0.140504049744898,0.3830029054798546
-0.140497799744898,0.3828453311548666
-0.140491549744898,0.3829241183173603
-0.140485299744898,0.3827665439923729
-0.1404790497448979,0.3826089696673841
-0.140472799744898,0.3826089696673841
-0.140466549744898,0.3826089696673841
-0.140460299744898,0.38253018250489
-0.1404540497448979,0.3823726081799015
-0.140447799744898,0.3822938210174077
-0.140441549744898,0.3822150338549138
-0.140435299744898,0.3822150338549136
-0.1404290497448979,0.3819786723674315
-0.140422799744898,0.3820574595299254
-0.140416549744898,0.3818210980424436
-0.140410299744898,0.3818998852049372
-0.140404049744898,0.3818998852049372
-0.140397799744898,0.3818998852049372
-0.140391549744898,0.3816635237174554
-0.140385299744898,0.3818210980424431
-0.140379049744898,0.3817423108799489
-0.140372799744898,0.3816635237174549
-0.140366549744898,0.3815059493924673
-0.140360299744898,0.3815847365549607
-0.140354049744898,0.3815847365549606
-0.140347799744898,0.3814271622299729
-0.140341549744898,0.3815847365549608
-0.1403352997448979,0.381269587904985
-0.140329049744898,0.3814271622299726
-0.140322799744898,0.3811120135799968
-0.140316549744898,0.3810332264175021
-0.1403102997448979,0.3809544392550078
-0.140304049744898,0.3807968649300199
-0.140297799744898,0.3807968649300199
-0.140291549744898,0.3808756520925139
-0.140285299744898,0.3807968649300196
-0.140279049744898,0.3806392906050317
-0.140272799744898,0.3808756520925135
-0.140266549744898,0.3806392906050317
-0.140260299744898,0.3806392906050315
-0.140254049744898,0.3805605034425376
-0.140247799744898,0.3804029291175499
-0.140241549744898,0.3802453547925612
-0.140235299744898,0.3802453547925609
-0.140229049744898,0.3800877804675732
-0.140222799744898,0.3800089933050793
-0.1402165497448979,0.3802453547925606
-0.140210299744898,0.380087780467573
-0.140204049744898,0.3797726318175971
-0.140197799744898,0.3798514189800907
-0.1401915497448979,0.3798514189800909
-0.140185299744898,0.3800089933050789
-0.140179049744898,0.379772631817597
-0.140172799744898,0.3796938446551025
-0.140166549744898,0.3796938446551022
-0.140160299744898,0.3795362703301142
-0.140154049744898,0.3796938446551022
-0.140147799744898,0.3796150574926084
-0.140141549744898,0.3796150574926079
-0.140135299744898,0.379378696005126
-0.140129049744898,0.3794574831676198
-0.140122799744898,0.3792211216801378
-0.140116549744898,0.3792211216801378
-0.140110299744898,0.3792211216801378
-0.140104049744898,0.379142334517644
-0.1400977997448979,0.3789059730301623
-0.140091549744898,0.3791423345176437
-0.140085299744898,0.3790635473551498
-0.140079049744898,0.3786696115426791
-0.1400727997448979,0.3791423345176432
-0.140066549744898,0.3789847601926555
-0.140060299744898,0.3789847601926555
-0.140054049744898,0.3789059730301614
-0.1400477997448979,0.3789059730301614
-0.140041549744898,0.3789059730301614
-0.140035299744898,0.3788271858676675
-0.140029049744898,0.3788271858676673
-0.140022799744898,0.3787483987051731
-0.140016549744898,0.3786696115426791
-0.140010299744898,0.3785120372176915
-0.140004049744898,0.3784332500551968
-0.139997799744898,0.3785120372176909
-0.139991549744898,0.3785120372176909
-0.139985299744898,0.3785120372176909
-0.139979049744898,0.378275675730209
-0.139972799744898,0.3784332500551967
-0.139966549744898,0.3783544628927029
-0.139960299744898,0.3782756757302086
-0.1399540497448979,0.3782756757302078
-0.139947799744898,0.3780393142427263
-0.139941549744898,0.3781181014052202
-0.139935299744898,0.3781968885677145
-0.1399290497448979,0.3779605270802322
-0.139922799744898,0.3779605270802322
-0.139916549744898,0.3781181014052201
-0.139910299744898,0.3779605270802322
-0.139904049744898,0.377802952755244
-0.139897799744898,0.377802952755244
-0.139891549744898,0.377802952755244
-0.139885299744898,0.3776453784302558
-0.139879049744898,0.3777241655927496
-0.139872799744898,0.3775665912677617
-0.139866549744898,0.3774878041052679
-0.139860299744898,0.3774878041052676
-0.139854049744898,0.3776453784302554
-0.139847799744898,0.377409016942774
-0.139841549744898,0.3774090169427733
-0.1398352997448979,0.3773302297802797
-0.139829049744898,0.3774090169427735
-0.139822799744898,0.3774090169427735
-0.139816549744898,0.3772514426177853
-0.1398102997448979,0.3769362939678092
-0.139804049744898,0.3770938682927971
-0.139797799744898,0.3769362939678092
-0.139791549744898,0.3768575068053148
-0.139785299744898,0.3769362939678089
-0.139779049744898,0.3769362939678089
-0.139772799744898,0.3766999324803271
-0.139766549744898,0.3765423581553384
-0.139760299744898,0.3766999324803266
-0.139754049744898,0.3766999324803266
-0.139747799744898,0.3766999324803266
-0.139741549744898,0.3766211453178325
-0.139735299744898,0.3764635709928445
-0.139729049744898,0.3765423581553383
-0.139722799744898,0.3763847838303501
-0.1397165497448979,0.3763059966678559
-0.139710299744898,0.376227209505362
-0.139704049744898,0.376305996667856
-0.139697799744898,0.3761484223428679
-0.1396915497448979,0.376069635180373
-0.139685299744898,0.3758332736928915
-0.139679049744898,0.3759908480178795
-0.139672799744898,0.3758332736928915
-0.1396665497448979,0.3756756993679031
-0.139660299744898,0.3755181250429152
-0.139654049744898,0.3755969122054091
-0.139647799744898,0.3752817635554329
-0.139641549744898,0.3754393378804211
-0.139635299744898,0.3754393378804211
-0.139629049744898,0.3753605507179272
-0.139622799744898,0.375360550717927
-0.139616549744898,0.375281763555433
-0.139610299744898,0.3753605507179268
-0.139604049744898,0.3751241892304455
-0.1395977997448979,0.3750454020679506
-0.139591549744898,0.3750454020679506
-0.139585299744898,0.3750454020679506
-0.139579049744898,0.3749666149054565
-0.1395727997448979,0.3748878277429621
-0.139566549744898,0.3748090405804683
-0.139560299744898,0.3750454020679501
-0.139554049744898,0.3748878277429624
-0.1395477997448979,0.3748878277429625
-0.139541549744898,0.3749666149054565
-0.139535299744898,0.3747302534179746
-0.139529049744898,0.3748878277429624
-0.139522799744898,0.3748878277429621
-0.139516549744898,0.3747302534179742
-0.139510299744898,0.3747302534179742
-0.139504049744898,0.3745726790929859
-0.139497799744898,0.3745726790929855
-0.139491549744898,0.3743363176055036
-0.139485299744898,0.3742575304430098
-0.139479049744898,0.3744151047679974
-0.139472799744898,0.3743363176055036
-0.139466549744898,0.3743363176055036
-0.139460299744898,0.3741787432805154
-0.1394540497448979,0.3741787432805149
-0.139447799744898,0.3740211689555272
-0.139441549744898,0.3740211689555272
-0.139435299744898,0.3739423817930331
-0.1394290497448979,0.3737060203055504
-0.139422799744898,0.3734696588180685
-0.139416549744898,0.3734696588180685
-0.139410299744898,0.3736272331430567
-0.139404049744898,0.3733908716555743
-0.139397799744898,0.3733120844930803
-0.139391549744898,0.3733908716555743
-0.139385299744898,0.3733908716555744
-0.139379049744898,0.3732332973305865
-0.139372799744898,0.3733908716555744
-0.139366549744898,0.3733120844930806
-0.139360299744898,0.3732332973305862
-0.139354049744898,0.3733120844930803
-0.139347799744898,0.3733120844930803
-0.139341549744898,0.3733120844930801
-0.1393352997448979,0.3732332973305867
-0.139329049744898,0.3733908716555744
-0.139322799744898,0.3733908716555744
-0.139316549744898,0.3732332973305862
-0.1393102997448979,0.3731545101680919
-0.139304049744898,0.373075723005598
-0.139297799744898,0.373075723005598
-0.139291549744898,0.3729969358431039
-0.139285299744898,0.3729969358431042
-0.139279049744898,0.3731545101680921
-0.139272799744898,0.3730757230055982
-0.139266549744898,0.3731545101680921
-0.139260299744898,0.3729969358431042
-0.139254049744898,0.3731545101680921
-0.139247799744898,0.3730757230055983
-0.139241549744898,0.373075723005598
-0.139235299744898,0.3728393615181161
-0.139229049744898,0.3730757230055975
-0.139222799744898,0.3729969358431042
-0.1392165497448979,0.3728393615181157
-0.139210299744898,0.3728393615181153
-0.139204049744898,0.3726030000306338
-0.139197799744898,0.3728393615181157
-0.1391915497448979,0.3726030000306334
-0.139185299744898,0.3726030000306334
-0.139179049744898,0.3724454257056455
-0.139172799744898,0.3724454257056452
-0.1391665497448979,0.3725242128681395
-0.139160299744898,0.3726030000306334
-0.139154049744898,0.3724454257056455
-0.139147799744898,0.3725242128681393
-0.139141549744898,0.3725242128681391
-0.139135299744898,0.3724454257056452
-0.139129049744898,0.372524212868139
-0.139122799744898,0.3721302770556688
-0.139116549744898,0.3722878513806572
-0.139110299744898,0.3723666385431511
-0.139104049744898,0.3721302770556696
-0.139097799744898,0.3722090642181627
-0.139091549744898,0.3722878513806568
-0.139085299744898,0.3722090642181631
-0.139079049744898,0.3722090642181629
-0.1390727997448979,0.3722090642181624
-0.139066549744898,0.3720514898931747
-0.139060299744898,0.3722090642181626
-0.139054049744898,0.3722090642181629
-0.1390477997448979,0.3721302770556686
-0.139041549744898,0.3720514898931747
-0.139035299744898,0.3718939155681868
-0.139029049744898,0.3720514898931747
-0.139022799744898,0.3720514898931744
-0.139016549744898,0.3718939155681865
-0.139010299744898,0.3719727027306804
-0.139004049744898,0.3719727027306806
-0.138997799744898,0.3718939155681865
-0.138991549744898,0.3718939155681865
-0.138985299744898,0.3717363412431989
-0.138979049744898,0.3717363412431983
-0.138972799744898,0.3718151284056923
-0.138966549744898,0.3717363412431985
-0.138960299744898,0.3716575540807037
-0.1389540497448979,0.3713424054307281
-0.138947799744898,0.3714211925932219
-0.138941549744898,0.371342405430728
-0.138935299744898,0.3712636182682337
-0.1389290497448979,0.3714999797557159
-0.138922799744898,0.3714211925932219
-0.138916549744898,0.3714999797557159
-0.138910299744898,0.3713424054307278
-0.138904049744898,0.3713424054307277
-0.138897799744898,0.3712636182682337
-0.138891549744898,0.3711848311057398
-0.138885299744898,0.3711848311057396
-0.138879049744898,0.3711848311057398
-0.138872799744898,0.3712636182682337
-0.138866549744898,0.3711060439432461
-0.138860299744898,0.3710272567807514
-0.138854049744898,0.3711060439432453
-0.138847799744898,0.3709484696182576
-0.138841549744898,0.3707121081307752
-0.1388352997448979,0.3707908952932691
-0.138829049744898,0.3707908952932691
-0.138822799744898,0.3707121081307752
-0.138816549744898,0.3705545338057868
-0.1388102997448979,0.3703969594807989
-0.138804049744898,0.3704757466432927
-0.138797799744898,0.3703969594807988
-0.138791549744898,0.3700818108308223
-0.1387852997448979,0.3700818108308223
-0.138779049744898,0.3700818108308223
-0.138772799744898,0.3702393851558102
-0.138766549744898,0.3699242365058341
-0.138760299744898,0.3697666621808461
-0.138754049744898,0.3699242365058341
-0.138747799744898,0.3698454493433402
-0.138741549744898,0.3697666621808459
-0.138735299744898,0.3696090878558578
-0.138729049744898,0.3696878750183518
-0.138722799744898,0.3696878750183518
-0.1387165497448979,0.3696090878558582
-0.138710299744898,0.3697666621808459
-0.138704049744898,0.3697666621808459
-0.138697799744898,0.3696878750183518
-0.1386915497448979,0.3699242365058335
-0.138685299744898,0.3697666621808459
-0.138679049744898,0.3698454493433398
-0.138672799744898,0.3697666621808459
-0.1386665497448979,0.3699242365058336
-0.138660299744898,0.3696878750183518
-0.138654049744898,0.3698454493433397
-0.138647799744898,0.3696878750183518
-0.138641549744898,0.3696090878558576
-0.138635299744898,0.3696090878558576
-0.138629049744898,0.3696878750183516
-0.138622799744898,0.3696090878558576
-0.138616549744898,0.36945151353087
-0.138610299744898,0.3697666621808459
-0.138604049744898,0.369687875018352
-0.138597799744898,0.3695303006933638
-0.138591549744898,0.3693727263683753
-0.138585299744898,0.3693727263683753
-0.138579049744898,0.3692151520433871
-0.1385727997448979,0.3693727263683759
-0.138566549744898,0.3695303006933635
-0.138560299744898,0.3692939392058817
-0.138554049744898,0.3692151520433871
-0.1385477997448979,0.3692939392058814
-0.138541549744898,0.3693727263683753
-0.138535299744898,0.3692151520433874
-0.138529049744898,0.3692939392058812
-0.138522799744898,0.3693727263683748
-0.138516549744898,0.3690575777183989
-0.138510299744898,0.3690575777183989
-0.138504049744898,0.369136364880893
-0.138497799744898,0.3691363648808927
-0.138491549744898,0.3689787905559048
-0.138485299744898,0.3690575777183986
-0.138479049744898,0.3689787905559048
-0.138472799744898,0.3688212162309169
-0.138466549744898,0.3689787905559045
-0.138460299744898,0.3689787905559045
-0.1384540497448979,0.3688212162309163
-0.138447799744898,0.3687424290684225
-0.138441549744898,0.3687424290684225
-0.138435299744898,0.3686636419059284
-0.1384290497448979,0.3688212162309166
-0.138422799744898,0.3688212162309166
-0.138416549744898,0.3685848547434348
-0.138410299744898,0.3686636419059284
-0.138404049744898,0.3685848547434345
-0.138397799744898,0.3686636419059284
-0.138391549744898,0.3685848547434345
-0.138385299744898,0.3686636419059284
-0.138379049744898,0.3685848547434346
-0.138372799744898,0.3687424290684225
-0.138366549744898,0.3684272804184472
-0.138360299744898,0.368348493255952
-0.138354049744898,0.3685848547434342
-0.138347799744898,0.3685060675809404
-0.138341549744898,0.3685060675809402
-0.1383352997448979,0.3685060675809402
-0.138329049744898,0.3685060675809401
-0.138322799744898,0.3684272804184462
-0.138316549744898,0.3682697060934579
-0.1383102997448979,0.3683484932559514
-0.138304049744898,0.3681909189309638
-0.138297799744898,0.3681909189309638
-0.138291549744898,0.3682697060934579
-0.1382852997448979,0.3679545574434813
-0.138279049744898,0.3678757702809874
-0.138272799744898,0.3679545574434813
-0.138266549744898,0.3678757702809874
-0.138260299744898,0.3676394087935053
-0.138254049744898,0.3677181959559992
-0.138247799744898,0.367954557443481
-0.138241549744898,0.3677969831184933
-0.138235299744898,0.3678757702809869
-0.138229049744898,0.3676394087935051
-0.138222799744898,0.3677969831184927
-0.138216549744898,0.3677181959559994
-0.138210299744898,0.3678757702809876
-0.138204049744898,0.3679545574434813
-0.138197799744898,0.3677969831184933
-0.1381915497448979,0.3677969831184936
-0.138185299744898,0.3678757702809874
-0.138179049744898,0.3677969831184935
-0.138172799744898,0.3677969831184933
-0.1381665497448979,0.3677181959559995
-0.138160299744898,0.3678757702809874
-0.138154049744898,0.3680333446059753
-0.138147799744898,0.3677969831184933
-0.138141549744898,0.3678757702809872
-0.138135299744898,0.3677969831184933
-0.138129049744898,0.3677181959559994
-0.138122799744898,0.3677181959559992
-0.138116549744898,0.3677969831184933
-0.138110299744898,0.3677969831184933
-0.138104049744898,0.3678757702809871
-0.138097799744898,0.3677969831184935
-0.138091549744898,0.3675606216310107
-0.138085299744898,0.3674030473060231
-0.138079049744898,0.367403047306023
-0.1380727997448979,0.3674818344685172
-0.138066549744898,0.367560621631011
-0.138060299744898,0.367560621631011
-0.138054049744898,0.3673242601435287
-0.1380477997448979,0.3674818344685173
-0.138041549744898,0.3677181959559992
-0.138035299744898,0.3675606216310113
-0.138029049744898,0.367560621631011
-0.138022799744898,0.3677181959559986
-0.138016549744898,0.3674030473060228
-0.138010299744898,0.3674030473060228
-0.138004049744898,0.3673242601435287
-0.137997799744898,0.3672454729810344
-0.137991549744898,0.3671666858185405
-0.137985299744898,0.3672454729810343
-0.137979049744898,0.3671666858185405
-0.137972799744898,0.3673242601435281
-0.137966549744898,0.3670091114935529
-0.137960299744898,0.3670091114935525
-0.1379540497448979,0.367087898656047
-0.137947799744898,0.3672454729810346
-0.137941549744898,0.3669303243310588
-0.137935299744898,0.3670878986560464
-0.1379290497448979,0.3668515371685644
-0.137922799744898,0.3669303243310582
-0.137916549744898,0.3670091114935521
-0.137910299744898,0.3670091114935523
-0.1379040497448979,0.3667727500060698
-0.137897799744898,0.3666939628435759
-0.137891549744898,0.3666939628435759
-0.137885299744898,0.3666151756810818
-0.137879049744898,0.3665363885185876
-0.137872799744898,0.3664576013560936
-0.137866549744898,0.3664576013560936
-0.137860299744898,0.3665363885185877
-0.137854049744898,0.3664576013560929
-0.137847799744898,0.3660636655436231
-0.137841549744898,0.3663000270311046
-0.1378352997448979,0.3663000270311049
-0.137829049744898,0.3661424527061172
-0.137822799744898,0.3661424527061172
-0.137816549744898,0.365984878381129
-0.1378102997448979,0.3659848783811285
-0.137804049744898,0.3658273040561408
-0.137797799744898,0.3659060912186348
-0.137791549744898,0.365984878381129
