data/raw/daniel/waveforms scope/TIA_LPF_GAIN TÆNDT.csv

#Digilent WaveForms Oscilloscope Acquisition
#Device Name: Discovery3
#Serial Number: SN:210415BDFD41
#Date Time: 2026-05-11 14:34:43.370.459.200
#Sample rate: 43010.8Hz
#Samples: 32768
#Trigger: Source: Channel 1 Type: Edge Condition: Rising Level: 114.6 mV Hyst.: Auto HoldOff: 0 s
#Channel 1: Range: 1 V/div Offset: -2.4 V Sample Mode: Average

Time (s),Channel 1 (V)
-0.7529103610122992,3.369641981702308
-0.7528871110122992,3.370544526407545
-0.7528638610122993,3.369641981702311
-0.7528406110122992,3.367836892291826
-0.7528173610122992,3.366031802881358
-0.7527941110122992,3.366031802881358
-0.7527708610122992,3.366031802881355
-0.7527476110122993,3.364226713470886
-0.7527243610122992,3.36512925817612
-0.7527011110122992,3.363324168765642
-0.7526778610122993,3.361519079355173
-0.7526546110122992,3.36151907935517
-0.7526313610122992,3.359713989944695
-0.7526081110122993,3.361519079355164
-0.7525848610122992,3.359713989944695
-0.7525616110122992,3.359713989944695
-0.7525383610122992,3.358811445239458
-0.7525151110122992,3.357908900534218
-0.7524918610122993,3.357006355828985
-0.7524686110122992,3.35790890053422
-0.7524453610122992,3.356103811123745
-0.7524221110122993,3.356103811123745
-0.7523988610122992,3.356103811123745
-0.7523756110122992,3.352493632302795
-0.7523523610122993,3.352493632302795
-0.7523291110122992,3.351591087597558
-0.7523058610122992,3.351591087597558
-0.7522826110122992,3.349785998187083
-0.7522593610122992,3.348883453481847
-0.7522361110122993,3.349785998187081
-0.7522128610122992,3.347980908776608
-0.7521896110122992,3.346175819366133
-0.7521663610122993,3.346175819366133
-0.7521431110122992,3.346175819366133
-0.7521198610122992,3.346175819366133
-0.7520966110122993,3.344370729955664
-0.7520733610122992,3.343468185250417
-0.7520501110122992,3.342565640545183
-0.7520268610122992,3.342565640545183
-0.7520036110122992,3.343468185250417
-0.7519803610122993,3.341663095839948
-0.7519571110122992,3.341663095839945
-0.7519338610122992,3.339858006429469
-0.7519106110122993,3.338955461724234
-0.7518873610122992,3.339858006429469
-0.7518641110122992,3.338955461724233
-0.7518408610122993,3.338052917018998
-0.7518176110122992,3.337150372313758
-0.7517943610122992,3.337150372313758
-0.7517711110122992,3.336247827608521
-0.7517478610122992,3.336247827608516
-0.7517246110122993,3.333540193492813
-0.7517013610122992,3.333540193492808
-0.7516781110122992,3.335345282903285
-0.7516548610122993,3.336247827608519
-0.7516316110122992,3.333540193492813
-0.7516083610122992,3.335345282903283
-0.7515851110122993,3.330832559377112
-0.7515618610122992,3.33173510408233
-0.7515386110122992,3.330832559377095
-0.7515153610122992,3.330832559377095
-0.7514921110122992,3.331735104082328
-0.7514688610122993,3.329027469966625
-0.7514456110122992,3.32902746996662
-0.7514223610122992,3.32631983585091
-0.7513991110122993,3.327222380556143
-0.7513758610122991,3.326319835850908
-0.7513526110122992,3.326319835850908
-0.7513293610122993,3.326319835850908
-0.7513061110122992,3.324514746440435
-0.7512828610122992,3.32541729114567
-0.7512596110122992,3.323612201735195
-0.7512363610122992,3.322709657029963
-0.7512131110122993,3.325417291145665
-0.7511898610122992,3.322709657029958
-0.7511666110122992,3.321807112324715
-0.7511433610122993,3.319099478209013
-0.7511201110122991,3.320904567619473
-0.7510968610122992,3.31819693350377
-0.7510736110122993,3.319099478209005
-0.7510503610122992,3.317294388798535
-0.7510271110122992,3.31819693350377
-0.7510038610122992,3.317294388798533
-0.7509806110122992,3.314586754682822
-0.7509573610122993,3.315489299388056
-0.7509341110122992,3.316391844093295
-0.7509108610122992,3.313684209977583
-0.7508876110122993,3.312781665272347
-0.7508643610122991,3.312781665272336
-0.7508411110122992,3.310074031156633
-0.7508178610122993,3.310976575861867
-0.7507946110122992,3.3091714864514
-0.7507713610122992,3.311879120567108
-0.7507481110122992,3.310074031156633
-0.7507248610122992,3.310976575861869
-0.7507016110122993,3.310074031156635
-0.7506783610122992,3.308268941746158
-0.7506551110122992,3.306463852335683
-0.7506318610122993,3.306463852335683
-0.7506086110122991,3.303756218219977
-0.7505853610122992,3.305561307630446
-0.7505621110122993,3.303756218219977
-0.7505388610122992,3.302853673514733
-0.7505156110122992,3.302853673514733
-0.7504923610122992,3.302853673514733
-0.7504691110122992,3.302853673514733
-0.7504458610122993,3.302853673514733
-0.7504226110122992,3.30014603939902
-0.7503993610122992,3.299243494693783
-0.7503761110122993,3.299243494693783
-0.7503528610122991,3.296535860578067
-0.7503296110122992,3.295633315872833
-0.7503063610122993,3.296535860578067
-0.7502831110122992,3.295633315872831
-0.7502598610122992,3.294730771167597
-0.7502366110122992,3.29292568175712
-0.7502133610122992,3.292925681757119
-0.7501901110122993,3.292023137051884
-0.7501668610122992,3.292023137051883
-0.7501436110122992,3.291120592346645
-0.7501203610122993,3.291120592346645
-0.7500971110122991,3.289315502936167
-0.7500738610122992,3.288412958230933
-0.7500506110122992,3.286607868820463
-0.7500273610122992,3.289315502936167
-0.7500041110122992,3.287510413525698
-0.7499808610122992,3.287510413525695
-0.7499576110122992,3.285705324115218
-0.7499343610122993,3.284802779409985
-0.7499111110122992,3.283900234704745
-0.7498878610122992,3.28209514529427
-0.7498646110122993,3.283900234704739
-0.7498413610122991,3.282997689999501
-0.7498181110122992,3.281192600589033
-0.7497948610122992,3.280290055883795
-0.7497716110122992,3.280290055883795
-0.7497483610122992,3.280290055883795
-0.7497251110122992,3.277582421768083
-0.7497018610122992,3.278484966473318
-0.7496786110122993,3.277582421768085
-0.7496553610122992,3.277582421768083
-0.7496321110122992,3.275777332357608
-0.7496088610122993,3.275777332357608
-0.7495856110122991,3.274874787652364
-0.7495623610122992,3.273069698241895
-0.7495391110122992,3.273972242947131
-0.7495158610122992,3.273069698241895
-0.7494926110122992,3.273069698241895
-0.7494693610122992,3.272167153536658
-0.7494461110122992,3.271264608831417
-0.7494228610122993,3.269459519420948
-0.7493996110122992,3.269459519420945
-0.7493763610122992,3.268556974715708
-0.7493531110122993,3.267654430010473
-0.7493298610122991,3.26675188530523
-0.7493066110122992,3.265849340599996
-0.7492833610122992,3.266751885305233
-0.7492601110122992,3.266751885305231
-0.7492368610122992,3.265849340599997
-0.7492136110122992,3.26404425118952
-0.7491903610122992,3.264044251189517
-0.7491671110122993,3.262239161779048
-0.7491438610122992,3.263141706484283
-0.7491206110122992,3.262239161779045
-0.7490973610122993,3.262239161779045
-0.7490741110122991,3.263141706484276
-0.7490508610122992,3.261336617073808
-0.7490276110122992,3.261336617073805
-0.7490043610122992,3.259531527663333
-0.7489811110122992,3.259531527663333
-0.7489578610122992,3.259531527663333
-0.7489346110122992,3.259531527663331
-0.7489113610122993,3.258628982958097
-0.7488881110122992,3.259531527663333
-0.7488648610122992,3.258628982958095
-0.7488416110122993,3.257726438252861
-0.7488183610122991,3.256823893547617
-0.7487951110122992,3.255921348842383
-0.7487718610122992,3.255921348842376
-0.7487486110122992,3.25231117002143
-0.7487253610122993,3.250506080610961
-0.7487021110122992,3.24960353590572
-0.7486788610122992,3.250506080610956
-0.7486556110122993,3.249603535905722
-0.7486323610122992,3.24960353590572
-0.7486091110122992,3.247798446495245
-0.7485858610122993,3.247798446495245
-0.7485626110122992,3.249603535905707
-0.7485393610122992,3.24599335708477
-0.7485161110122992,3.24509081237953
-0.7484928610122992,3.243285722969058
-0.7484696110122993,3.243285722969058
-0.7484463610122992,3.24238317826382
-0.7484231110122992,3.240578088853344
-0.7483998610122993,3.23967554414811
-0.7483766110122992,3.239675544148108
-0.7483533610122992,3.23877299944287
-0.7483301110122993,3.236065365327168
-0.7483068610122992,3.234260275916676
-0.7482836110122992,3.232455186506208
-0.7482603610122992,3.232455186506208
-0.7482371110122992,3.230650097095728
-0.7482138610122993,3.227942462980025
-0.7481906110122992,3.227039918274783
-0.7481673610122992,3.225234828864305
-0.7481441110122993,3.223429739453836
-0.7481208610122992,3.222527194748595
-0.7480976110122992,3.219819560632883
-0.7480743610122993,3.218014471222415
-0.7480511110122992,3.216209381811926
-0.7480278610122992,3.214404292401458
-0.7480046110122992,3.212599202990983
-0.7479813610122992,3.208989024170033
-0.7479581110122993,3.208989024170033
-0.7479348610122992,3.207183934759558
-0.7479116110122992,3.207183934759553
-0.7478883610122993,3.20447630064385
-0.7478651110122992,3.202671211233374
-0.7478418610122992,3.20267121123337
-0.7478186110122993,3.199963577117668
-0.7477953610122992,3.197255943001938
-0.7477721110122992,3.195450853591471
-0.7477488610122992,3.192743219475758
-0.7477256110122992,3.190938130065278
-0.7477023610122993,3.188230495949575
-0.7476791110122992,3.187327951244333
-0.7476558610122992,3.186425406539089
-0.7476326110122993,3.182815227718152
-0.7476093610122992,3.18191268301291
-0.7475861110122992,3.180107593602433
-0.7475628610122993,3.178302504191965
-0.7475396110122992,3.177399959486717
-0.7475163610122992,3.176497414781483
-0.7474931110122992,3.172887235960533
-0.7474698610122992,3.171984691255292
-0.7474466110122993,3.170179601844823
-0.7474233610122992,3.168374512434346
-0.7474001110122992,3.165666878318628
-0.7473768610122993,3.162959244202925
-0.7473536110122992,3.16295924420292
-0.7473303610122992,3.161154154792445
-0.7473071110122993,3.158446520676743
-0.7472838610122992,3.158446520676723
-0.7472606110122992,3.155738886561021
-0.7472373610122992,3.153933797150545
-0.7472141110122992,3.152128707740065
-0.7471908610122993,3.149421073624363
-0.7471676110122992,3.150323618329595
-0.7471443610122992,3.144005805392928
-0.7471211110122993,3.141298171277225
-0.7470978610122992,3.139493081866748
-0.7470746110122992,3.136785447751033
-0.7470513610122993,3.135882903045799
-0.7470281110122992,3.134980358340551
-0.7470048610122992,3.133175268930083
-0.7469816110122992,3.129565090109133
-0.7469583610122992,3.127760000698655
-0.7469351110122993,3.125954911288186
-0.7469118610122992,3.125052366582945
-0.7468886110122992,3.122344732467228
-0.7468653610122993,3.119637098351525
-0.7468421110122992,3.117832008941048
-0.7468188610122992,3.115124374825333
-0.7467956110122993,3.11241674070963
-0.7467723610122992,3.111514196004373
-0.7467491110122992,3.10880656188867
-0.7467258610122992,3.106098927772958
-0.7467026110122992,3.102488748952005
-0.7466793610122993,3.100683659541536
-0.7466561110122992,3.098878570131058
-0.7466328610122992,3.096170936015341
-0.7466096110122993,3.093463301899638
-0.7465863610122992,3.08985312307869
-0.7465631110122992,3.088048033668208
-0.7465398610122993,3.085340399552505
-0.7465166110122992,3.082632765436769
-0.7464933610122992,3.079022586615833
-0.7464701110122992,3.077217497205358
-0.7464468610122992,3.074509863089637
-0.7464236110122993,3.069997139563466
-0.7464003610122992,3.067289505447746
-0.7463771110122992,3.067289505447742
-0.7463538610122993,3.065484416037274
-0.7463306110122992,3.062776781921563
-0.7463073610122992,3.059166603100608
-0.7462841110122993,3.058264058395374
-0.7462608610122992,3.054653879574414
-0.7462376110122992,3.05104370075347
-0.7462143610122992,3.050141156048233
-0.7461911110122992,3.047433521932514
-0.7461678610122993,3.043823343111577
-0.7461446110122992,3.042018253701095
-0.7461213610122992,3.040213164290613
-0.7460981110122993,3.035700440764441
-0.7460748610122991,3.033895351353944
-0.7460516110122992,3.030285172533008
-0.7460283610122993,3.025772449006837
-0.7460051110122992,3.023064814891108
-0.7459818610122992,3.023064814891108
-0.7459586110122992,3.021259725480633
-0.7459353610122992,3.02035718077539
-0.7459121110122993,3.017649546659688
-0.7458888610122992,3.01494191254397
-0.7458656110122992,3.013136823133492
-0.7458423610122993,3.011331733723023
-0.7458191110122991,3.009526644312536
-0.7457958610122992,3.006819010196833
-0.7457726110122993,3.005013920786365
-0.7457493610122992,3.004111376081117
-0.7457261110122992,3.002306286670645
-0.7457028610122992,3.002306286670645
-0.7456796110122992,2.997793563144455
-0.7456563610122993,2.995988473733986
-0.7456331110122992,2.99328083961827
-0.7456098610122992,2.991475750207795
-0.7455866110122993,2.99057320550256
-0.7455633610122991,2.988768116092076
-0.7455401110122992,2.986963026681608
-0.7455168610122993,2.985157937271139
-0.7454936110122992,2.982450303155417
-0.7454703610122992,2.980645213744945
-0.7454471110122992,2.976132490218758
-0.7454238610122992,2.975229945513517
-0.7454006110122993,2.973424856103049
-0.7453773610122992,2.972522311397808
-0.7453541110122992,2.969814677282096
-0.7453308610122993,2.96891213257686
-0.7453076110122991,2.966204498461136
-0.7452843610122992,2.963496864345433
-0.7452611110122993,2.961691774934965
-0.7452378610122992,2.959886685524481
-0.7452146110122992,2.958984140819247
-0.7451913610122992,2.957179051408771
-0.7451681110122992,2.95627650670353
-0.7451448610122993,2.954471417293061
-0.7451216110122992,2.954471417293058
-0.7450983610122992,2.951763783177346
-0.7450751110122993,2.949056149061638
-0.7450518610122991,2.946348514945917
-0.7450286110122992,2.945445970240683
-0.7450053610122993,2.944543425535449
-0.7449821110122992,2.943640880830205
-0.7449588610122992,2.941835791419736
-0.7449356110122992,2.941835791419733
-0.7449123610122992,2.939128157304022
-0.7448891110122993,2.940030702009256
-0.7448658610122992,2.937323067893546
-0.7448426110122992,2.935517978483071
-0.7448193610122993,2.934615433777835
-0.7447961110122991,2.933712889072589
-0.7447728610122992,2.93190779966212
-0.7447496110122992,2.931005254956881
-0.7447263610122992,2.930102710251646
-0.7447031110122992,2.930102710251646
-0.7446798610122992,2.928297620841171
-0.7446566110122992,2.928297620841168
-0.7446333610122993,2.926492531430699
-0.7446101110122992,2.926492531430696
-0.7445868610122992,2.923784897314983
-0.7445636110122993,2.922882352609748
-0.7445403610122991,2.921979807904508
-0.7445171110122992,2.921979807904508
-0.7444938610122992,2.921979807904506
-0.7444706110122992,2.921077263199269
-0.7444473610122992,2.920174718494035
-0.7444241110122992,2.919272173788796
-0.7444008610122992,2.91836962908356
-0.7443776110122993,2.919272173788794
-0.7443543610122992,2.918369629083558
-0.7443311110122992,2.917467084378321
-0.7443078610122993,2.918369629083555
-0.7442846110122991,2.917467084378324
-0.7442613610122992,2.918369629083558
-0.7442381110122992,2.918369629083561
-0.7442148610122992,2.92017471849403
-0.7441916110122992,2.918369629083561
-0.7441683610122992,2.919272173788796
-0.7441451110122992,2.919272173788799
-0.7441218610122993,2.921077263199268
-0.7440986110122992,2.920174718494033
-0.7440753610122992,2.920174718494033
-0.7440521110122993,2.919272173788799
-0.7440288610122991,2.920174718494026
-0.7440056110122992,2.918369629083558
-0.7439823610122992,2.92017471849403
-0.7439591110122992,2.918369629083563
-0.7439358610122992,2.921077263199266
-0.7439126110122992,2.920174718494033
-0.7438893610122992,2.921077263199273
-0.7438661110122993,2.921979807904506
-0.7438428610122992,2.922882352609745
-0.7438196110122992,2.923784897314983
-0.7437963610122993,2.921979807904515
-0.7437731110122991,2.922882352609748
-0.7437498610122992,2.923784897314983
-0.7437266110122992,2.922882352609747
-0.7437033610122992,2.923784897314986
-0.7436801110122992,2.925589986725455
-0.7436568610122992,2.925589986725458
-0.7436336110122992,2.92558998672546
-0.7436103610122993,2.926492531430694
-0.7435871110122992,2.927395076135933
-0.7435638610122992,2.926492531430696
-0.7435406110122993,2.929200165546398
-0.7435173610122991,2.930102710251643
-0.7434941110122992,2.929200165546408
-0.7434708610122992,2.930102710251647
-0.7434476110122992,2.931005254956886
-0.7434243610122993,2.932810344367355
-0.7434011110122992,2.932810344367358
-0.7433778610122992,2.935517978483074
-0.7433546110122993,2.937323067893542
-0.7433313610122992,2.939128157304021
-0.7433081110122992,2.940030702009258
-0.7432848610122993,2.941835791419726
-0.7432616110122992,2.942738336124977
-0.7432383610122992,2.944543425535445
-0.7432151110122992,2.945445970240685
-0.7431918610122992,2.946348514945925
-0.7431686110122993,2.949056149061628
-0.7431453610122992,2.951763783177346
-0.7431221110122992,2.951763783177352
-0.7430988610122993,2.955373961998289
-0.7430756110122992,2.954471417293058
-0.7430523610122992,2.956276506703533
-0.7430291110122993,2.957179051408767
-0.7430058610122992,2.958984140819252
-0.7429826110122992,2.960789230229721
-0.7429593610122992,2.963496864345433
-0.7429361110122992,2.96439940905067
-0.7429128610122993,2.96439940905067
-0.7428896110122992,2.967107043166383
-0.7428663610122992,2.968912132576863
-0.7428431110122993,2.971619766692565
-0.7428198610122992,2.972522311397808
-0.7427966110122992,2.97522994551352
-0.7427733610122993,2.976132490218755
-0.7427501110122992,2.977035034924009
-0.7427268610122992,2.980645213744945
-0.7427036110122992,2.981547758450183
-0.7426803610122992,2.982450303155423
-0.7426571110122993,2.984255392565892
-0.7426338610122992,2.986060481976371
-0.7426106110122992,2.988768116092085
-0.7425873610122993,2.989670660797318
-0.7425641110122992,2.992378294913028
-0.7425408610122992,2.99328083961827
-0.7425176110122993,2.995988473733973
-0.7424943610122992,2.995988473733993
-0.7424711110122992,2.998696107849695
-0.7424478610122992,2.999598652554933
-0.7424246110122992,3.00230628667065
-0.7424013610122993,3.005013920786353
-0.7423781110122992,3.006819010196833
-0.7423548610122992,3.009526644312549
-0.7423316110122993,3.011331733723017
-0.7423083610122992,3.013136823133492
-0.7422851110122992,3.015844457249208
-0.7422618610122993,3.015844457249208
-0.7422386110122992,3.017649546659693
-0.7422153610122992,3.020357180775395
-0.7421921110122992,3.021259725480633
-0.7421688610122992,3.021259725480635
-0.7421456110122993,3.022162270185869
-0.7421223610122992,3.020357180775395
-0.7420991110122992,3.02216227018587
-0.7420758610122993,3.02216227018587
-0.7420526110122992,3.025772449006814
-0.7420293610122992,3.026674993712058
-0.7420061110122993,3.030285172532995
-0.7419828610122992,3.033895351353964
-0.7419596110122992,3.035700440764433
-0.7419363610122992,3.039310619585383
-0.7419131110122992,3.04111570899586
-0.7418898610122993,3.042018253701094
-0.7418666110122992,3.045628432522046
-0.7418433610122992,3.048336066637756
-0.7418201110122993,3.047433521932522
-0.7417968610122992,3.047433521932521
-0.7417736110122992,3.050141156048233
-0.7417503610122993,3.049238611342999
-0.7417271110122992,3.050141156048233
-0.7417038610122992,3.050141156048233
-0.7416806110122992,3.052848790163945
-0.7416573610122992,3.055556424279661
-0.7416341110122993,3.05736151369013
-0.7416108610122992,3.060971692511083
-0.7415876110122992,3.062776781921563
-0.7415643610122993,3.065484416037266
-0.7415411110122992,3.068192050152978
-0.7415178610122992,3.06909459485822
-0.7414946110122993,3.071802228973923
-0.7414713610122992,3.076314952500127
-0.7414481110122992,3.078120041910595
-0.7414248610122992,3.080827676026308
-0.7414016110122992,3.08443785484726
-0.7413783610122993,3.085340399552494
-0.7413551110122992,3.088950578373446
-0.7413318610122992,3.089853123078688
-0.7413086110122993,3.09256075719439
-0.7412853610122992,3.094365846604867
-0.7412621110122992,3.096170936015346
-0.7412388610122993,3.099781114836282
-0.7412156110122992,3.10158620424678
-0.7411923610122992,3.104293838362483
-0.7411691110122992,3.106098927772958
-0.7411458610122992,3.110611651299152
-0.7411226110122993,3.114221830120089
-0.7410993610122992,3.115124374825333
-0.7410761110122992,3.119637098351523
-0.7410528610122993,3.121442187761992
-0.7410296110122992,3.124149821877703
-0.7410063610122992,3.12685745599342
-0.7409831110122993,3.128662545403889
-0.7409598610122992,3.13227272422485
-0.7409366110122992,3.134980358340558
-0.7409133610122992,3.139493081866745
-0.7408901110122992,3.142200715982461
