data/raw/daniel/waveforms scope/TIA_LPF TÆNDT.csv

#Digilent WaveForms Oscilloscope Acquisition
#Device Name: Discovery3
#Serial Number: SN:210415BDFD41
#Date Time: 2026-05-11 14:32:45.391.011.610
#Sample rate: 63979.5Hz
#Samples: 32768
#Trigger: Source: Channel 1 Type: Edge Condition: Rising Level: 114.6 mV Hyst.: Auto HoldOff: 0 s
#Channel 1: Range: 200 mV/div Offset: -520 mV Sample Mode: Average

Time (s),Channel 1 (V)
-0.2440799053787642,-0.02862243628318617
-0.2440642753787642,-0.02893758493316299
-0.2440486453787642,-0.02917394642064497
-0.2440330153787642,-0.02956788223311546
-0.2440173853787642,-0.02988303088309128
-0.2440017553787642,-0.02996181804558581
-0.2439861253787642,-0.03043454102055112
-0.2439704953787642,-0.03074968967052694
-0.2439548653787642,-0.03106483832050333
-0.2439392353787642,-0.03137998697047915
-0.2439236053787642,-0.03145877413297483
-0.2439079753787642,-0.03201028427043294
-0.2438923453787642,-0.0322466457579148
-0.2438767153787642,-0.032404220082903
-0.2438610853787642,-0.03264058157038487
-0.2438454553787642,-0.03295573022036212
-0.2438298253787642,-0.03319209170784427
-0.2438141953787642,-0.03334966603283218
-0.2437985653787642,-0.03366481468280857
-0.2437829353787642,-0.03397996333278439
-0.2437673053787642,-0.03390117617029173
-0.2437516753787642,-0.03437389914525586
-0.2437360453787642,-0.03453147347024377
-0.2437204153787642,-0.03500419644520836
-0.2437047853787642,-0.03531934509518418
-0.2436891553787642,-0.03555570658266748
-0.2436735253787642,-0.03579206807014934
-0.2436578953787642,-0.03626479104511393
-0.2436422653787642,-0.03650115253259623
-0.2436266353787642,-0.03673751402007809
-0.2436110053787642,-0.0369738755075611
-0.2435953753787642,-0.03713144983254901
-0.2435797453787642,-0.03744659848252541
-0.2435641153787642,-0.0376829599700077
-0.2435484853787642,-0.03791932145748957
-0.2435328553787642,-0.03815568294497287
-0.2435172253787642,-0.03847083159494868
-0.2435015953787642,-0.03886476740741918
-0.2434859653787642,-0.03917991605739568
-0.2434703353787642,-0.03925870321988963
-0.2434547053787642,-0.0396526390323607
-0.2434390753787642,-0.03988900051984257
-0.2434234453787642,-0.04012536200732486
-0.2434078153787642,-0.04044051065730125
-0.2433921853787642,-0.04051929781979521
-0.2433765553787642,-0.04083444646977232
-0.2433609253787642,-0.04114959511974814
-0.2433452953787642,-0.04122838228224224
-0.2433296653787642,-0.04146474376972453
-0.2433140353787642,-0.04193746674468826
-0.2432984053787642,-0.04193746674468955
-0.2432827753787642,-0.04217382823217142
-0.2432671453787642,-0.04256776404464191
-0.2432515153787642,-0.04272533836963011
-0.2432358853787642,-0.04288291269461802
-0.2432202553787642,-0.04327684850708937
-0.2432046253787642,-0.04359199715706519
-0.2431889953787642,-0.04390714580704169
-0.2431733653787642,-0.04398593296953564
-0.2431577353787642,-0.04406472013202974
-0.2431421053787642,-0.04437986878200657
-0.2431264753787642,-0.04453744310699448
-0.2431108453787642,-0.04485259175697087
-0.2430952153787642,-0.04516774040694669
-0.2430795853787642,-0.04540410189442913
-0.2430639553787642,-0.04556167621941847
-0.2430483253787642,-0.04595561203188825
-0.2430326953787642,-0.04611318635687645
-0.2430170653787642,-0.04634954784435831
-0.2430014353787642,-0.04666469649433542
-0.2429858053787642,-0.04682227081932362
-0.2429701753787642,-0.04697984514431153
-0.2429545453787642,-0.04690105798181743
-0.2429389153787642,-0.04721620663179325
-0.2429232853787642,-0.0473737809567823
-0.2429076553787642,-0.0475313552817705
-0.2428920253787642,-0.04768892960675841
-0.2428763953787642,-0.04784650393174661
-0.2428607653787642,-0.04816165258172243
-0.2428451353787642,-0.04816165258172329
-0.2428295053787642,-0.0483192269067112
-0.2428138753787642,-0.0483192269067112
-0.2427982453787642,-0.0483980140692053
-0.2427826153787642,-0.04847680123169925
-0.2427669853787642,-0.04855558839419407
-0.2427513553787642,-0.04887073704417
-0.2427357253787642,-0.0487919498816759
-0.2427200953787642,-0.04910709853165229
-0.2427044653787642,-0.04918588569414625
-0.2426888353787642,-0.04926467285664034
-0.2426732053787642,-0.04918588569414639
-0.2426575753787642,-0.04942224718162869
-0.2426419453787642,-0.04942224718162869
-0.2426263153787642,-0.04989497015659242
-0.2426106853787642,-0.04989497015659356
-0.2425950553787642,-0.05005254448158147
-0.2425794253787642,-0.05005254448158147
-0.2425637953787642,-0.05005254448158147
-0.2425481653787642,-0.05013133164407543
-0.2425325353787642,-0.05021011880656982
-0.2425169053787642,-0.05028890596906377
-0.2425012753787642,-0.05028890596906377
-0.2424856453787642,-0.05044648029405197
-0.2424700153787642,-0.05028890596906405
-0.2424543853787642,-0.0504464802940524
-0.2424387553787642,-0.05068284178153426
-0.2424231253787642,-0.05052526745654606
-0.2424074953787642,-0.05068284178153426
-0.2423918653787642,-0.05099799043151008
-0.2423762353787642,-0.05076162894402821
-0.2423606053787642,-0.05068284178153426
-0.2423449753787642,-0.05060405461904016
-0.2423293453787642,-0.05084041610652246
-0.2423137153787642,-0.05099799043151037
-0.2422980853787642,-0.05091920326901656
-0.2422824553787642,-0.05091920326901656
-0.2422668253787642,-0.05091920326901656
-0.2422511953787642,-0.05107677759400447
-0.2422355653787642,-0.05091920326901684
-0.2422199353787642,-0.05115556475649857
-0.2422043053787642,-0.05099799043151065
-0.2421886753787642,-0.05107677759400475
-0.2421730453787642,-0.0511555647564987
-0.2421574153787642,-0.0512343519189928
-0.2421417853787642,-0.0511555647564987
-0.2421261553787642,-0.05107677759400475
-0.2421105253787642,-0.05107677759400475
-0.2420948953787642,-0.0511555647564987
-0.2420792653787642,-0.05115556475649885
-0.2420636353787642,-0.0511555647564987
-0.2420480053787642,-0.05107677759400475
-0.2420323753787642,-0.05107677759400475
-0.2420167453787642,-0.0509979904315108
-0.2420011153787642,-0.05091920326901656
-0.2419854853787642,-0.05091920326901699
-0.2419698553787642,-0.05115556475649885
-0.2419542253787642,-0.05099799043151065
-0.2419385953787642,-0.0509192032690167
-0.2419229653787642,-0.05091920326901627
-0.2419073353787642,-0.05076162894402821
-0.2418917053787642,-0.05068284178153426
-0.2418760753787642,-0.05060405461904016
-0.2418604453787642,-0.05060405461904016
-0.2418448153787642,-0.05060405461903988
-0.2418291853787642,-0.05044648029405197
-0.2418135553787642,-0.05028890596906377
-0.2417979253787642,-0.05028890596906377
-0.2417822953787642,-0.05044648029405168
-0.2417666653787642,-0.05028890596906362
-0.2417510353787642,-0.05021011880656967
-0.2417354053787642,-0.05021011880656967
-0.2417197753787642,-0.05005254448158147
-0.2417041453787642,-0.05005254448158147
-0.2416885153787642,-0.04989497015659299
-0.2416728853787642,-0.04973739583160508
-0.2416572553787642,-0.04973739583160508
-0.2416416253787642,-0.04965860866911098
-0.2416259953787642,-0.04957982150661703
-0.2416103653787642,-0.0494222471816284
-0.2415947353787642,-0.04926467285664049
-0.2415791053787642,-0.04918588569414639
-0.2415634753787642,-0.04910709853165229
-0.2415478453787642,-0.04894952420666438
-0.2415322153787642,-0.0487919498816759
-0.2415165853787642,-0.0487919498816759
-0.2415009553787642,-0.04871316271918169
-0.2414853253787642,-0.0483980140692053
-0.2414696953787642,-0.04816165258172343
-0.2414540653787642,-0.04824043974421695
-0.2414384353787642,-0.048161652581723
-0.2414228053787642,-0.04792529109424071
-0.2414071753787642,-0.04753135528177022
-0.2413915453787642,-0.04729499379428835
-0.2413759153787642,-0.04729499379428749
-0.2413602853787642,-0.04705863230680563
-0.2413446553787642,-0.04682227081932333
-0.2413290253787642,-0.04666469649433542
-0.2413133953787642,-0.04650712216934722
-0.2412977653787642,-0.04627076068186464
-0.2412821353787642,-0.04627076068186464
-0.2412665053787642,-0.04611318635687645
-0.2412508753787642,-0.04595561203188853
-0.2412352453787642,-0.04548288905692452
-0.2412196153787642,-0.04556167621941704
-0.2412039853787642,-0.04516774040694727
-0.2411883553787642,-0.04493137891946497
-0.2411727253787642,-0.04469501743198311
-0.2411570953787642,-0.04461623026948772
-0.2411414653787642,-0.04414350729452384
-0.2411258353787642,-0.04406472013202989
-0.2411102053787642,-0.04374957148205338
-0.2410945753787642,-0.04335563566958361
-0.2410789453787642,-0.04319806134459441
-0.2410633153787642,-0.04304048701960621
-0.2410476853787642,-0.0428829126946183
-0.2410320553787642,-0.04272533836963011
-0.2410164253787642,-0.04233140255716033
-0.2410007953787642,-0.04217382823217084
-0.2409851653787642,-0.04185867958219459
-0.2409695353787642,-0.04162231809471273
-0.2409539053787642,-0.04146474376972453
-0.2409382753787642,-0.04138595660723058
-0.2409226453787642,-0.04114959511974756
-0.2409070153787642,-0.04083444646977175
-0.2408913853787642,-0.04051929781979535
-0.2408757553787642,-0.04044051065730125
-0.2408601253787642,-0.04028293633231334
-0.2408444953787642,-0.04004657484483062
-0.2408288653787642,-0.03996778768233666
-0.2408132353787642,-0.03957385186986617
-0.2407976053787642,-0.03933749038238388
-0.2407819753787642,-0.03902234173240806
-0.2407663453787642,-0.03878598024492493
-0.2407507153787642,-0.03870719308243098
-0.2407350853787642,-0.03847083159494868
-0.2407194553787642,-0.03823447010746639
-0.2407038253787642,-0.03791932145749057
-0.2406881953787642,-0.03768295997000742
-0.2406725653787642,-0.0375253856450195
-0.2406569353787642,-0.03713144983254901
-0.2406413053787642,-0.03650115253259623
-0.2406256753787642,-0.03555570658266877
-0.2406100453787642,-0.03445268630774766
-0.2405944153787642,-0.03334966603283218
-0.2405787853787642,-0.03208907143292661
-0.2405631553787642,-0.03043454102055054
-0.2405475253787642,-0.02870122344568342
-0.2405318953787642,-0.02673154438332365
-0.2405162653787642,-0.02444671667099896
-0.2405006353787642,-0.0219255274711877
-0.2404850053787642,-0.01948312543387065
-0.2404693753787642,-0.01696193623406398
-0.2404537453787642,-0.01420438554675997
-0.2404381153787642,-0.01097411188450781
-0.2404224853787642,-0.007901412547237863
-0.2404068553787642,-0.004749926047479661
-0.2403912253787642,-0.001125716572751887
-0.2403755953787642,0.002419705739495691
-0.2403599653787642,0.005965128051723778
-0.2403443353787642,0.0096681246889464
-0.2403287053787642,0.01360748281364426
-0.2403130753787642,0.0177044152633372
-0.2402974453787642,0.02164377338805713
-0.2402818153787642,0.02574070583774285
-0.2402661853787642,0.03015278693741247
-0.2402505553787642,0.03472244236206197
-0.2402349253787642,0.03937088494923022
-0.2402192953787642,0.04378296604890013
-0.2402036653787642,0.04835262147354957
-0.2401880353787642,0.05300106406070149
-0.2401724053787642,0.05780708097283285
-0.2401567753787642,0.06221916207251996
-0.2401411453787642,0.06702517898466064
-0.2401255153787642,0.07214634454676783
-0.2401098853787642,0.07750387159636662
-0.2400942553787642,0.08278261148346172
-0.2400786253787642,0.08782498988310376
-0.2400629953787642,0.09334009125769095
-0.2400473653787642,0.09893397979476187
-0.2400317353787642,0.1042915068443607
-0.2400161053787642,0.1098853953814316
-0.2400004753787642,0.1154792839185331
-0.2399848453787642,0.121073172455604
-0.2399692153787642,0.1267458481551792
-0.2399535853787642,0.1322609495297662
-0.2399379553787642,0.1377760509043432
-0.2399223253787642,0.1435275137664326
-0.2399066953787642,0.1490426151410095
-0.2398910653787642,0.1547152908405848
-0.2398754353787642,0.1607819023526305
-0.2398598053787642,0.1664545780521953
-0.2398441753787642,0.1720484665892967
-0.2398285453787642,0.1774847808013797
-0.2398129153787642,0.183236243663449
-0.2397972853787642,0.188751345038036
-0.2397816553787642,0.1944240207376009
-0.2397660253787642,0.2005694194121616
-0.2397503953787642,0.2063996694367145
-0.2397347653787642,0.2122299194612778
-0.2397191353787642,0.2180601694858412
-0.2397035053787642,0.2237328451854061
-0.2396878753787642,0.2297206695349788
-0.2396722453787642,0.2356297067220255
-0.2396566153787642,0.2416963182340713
-0.2396409853787642,0.2476053554211288
-0.2396253553787642,0.2533568182831877
-0.2396097253787642,0.2592658554702662
-0.2395940953787642,0.265096105494819
-0.2395784653787642,0.2710051426818765
-0.2395628353787642,0.276914179868934
-0.2395472053787642,0.2829020042184748
-0.2395315753787642,0.2887322542430596
-0.2395159453787642,0.2945625042676124
-0.2395003153787642,0.30047154145467
-0.2394846853787642,0.3062230043167288
-0.2394690553787642,0.3118956800163042
-0.2394534253787642,0.3179622915283711
-0.2394377953787642,0.3239501158779118
-0.2394221653787642,0.329622791577487
-0.2394065353787642,0.335216680114558
-0.2393909053787642,0.3411257173016149
-0.2393752753787642,0.3467196058387169
-0.2393596453787642,0.3523134943757879
-0.2393440153787642,0.3581437444003512
-0.2393283853787642,0.3638164200999161
-0.2393127553787642,0.3693315214745237
-0.2392971253787642,0.3750041971740988
-0.2392814953787642,0.3805980857111698
-0.2392658653787642,0.3861131870857568
-0.2392502353787642,0.3917070756228277
-0.2392346053787642,0.3971433898349411
-0.2392189753787642,0.4028160655345163
-0.2392033453787642,0.4084887412340812
-0.2391877153787642,0.4139250554461741
-0.2391720853787642,0.4195189439832451
-0.2391564553787642,0.4248764710328639
-0.2391408253787642,0.4303127852449564
-0.2391251953787642,0.4355127379695576
-0.2391095653787642,0.4412642008316269
-0.2390939353787642,0.4467005150437099
-0.2390783053787642,0.45190046776834
-0.2390626753787642,0.4571792076554351
-0.2390470453787642,0.4624579475425398
-0.2390314153787642,0.4676579002671504
-0.2390157853787642,0.4726214915042697
-0.2390001553787642,0.4779790185538877
-0.2389845253787642,0.4835729070909586
-0.2389688953787642,0.4883789240030987
-0.2389532653787642,0.4934213024027211
-0.2389376353787642,0.4986212551273223
-0.2389220053787642,0.503663633526963
-0.2389063753787642,0.5084696504390943
-0.2388907453787642,0.5134332416762226
-0.2388751153787642,0.5182392585883627
-0.2388594853787642,0.5228877011755062
-0.2388438553787642,0.5277725052501576
-0.2388282253787642,0.532578522162289
-0.2388125953787642,0.5371481775869467
-0.2387969653787642,0.5420329816615809
-0.2387813353787642,0.5468389985737122
-0.2387657053787642,0.5514086539983876
-0.2387500753787642,0.5562146709105189
-0.2387344453787642,0.5609419006601649
-0.2387188153787642,0.5655903432473168
-0.2387031853787642,0.5700024243469785
-0.2386875553787642,0.5746508669341466
-0.2386719253787642,0.5791417351963021
-0.2386562953787642,0.583790177783454
-0.2386406653787642,0.5881234717206295
-0.2386250353787642,0.592614339982785
-0.2386094053787642,0.5970264210824714
-0.2385937753787642,0.6017536508321089
-0.2385781453787642,0.6060081576067902
-0.2385625153787642,0.6102626643814638
-0.2385468853787642,0.6145959583186392
-0.2385312553787642,0.6187716779308426
-0.2385156253787642,0.6232625461929981
-0.2384999953787642,0.6272806914801973
-0.2384843653787642,0.6313776239298831
-0.2384687353787642,0.6355533435420702
-0.2384531053787642,0.6397290631542726
-0.2384374753787642,0.6439047827664524
-0.2384218453787642,0.6480017152161456
-0.2384062153787642,0.6520198605033374
-0.2383905853787642,0.6560380057905507
-0.2383749553787642,0.659898576752762
-0.2383593253787642,0.6639167220399538
-0.2383436953787642,0.6676985058396706
-0.2383280653787642,0.6716378639643684
-0.2383124353787642,0.6754196477640991
-0.2382968053787642,0.6791226444013224
-0.2382811753787642,0.6831407896885142
-0.2382655453787642,0.686922573488231
-0.2382499153787642,0.690625570125447
-0.2382342853787642,0.6943285667626833
-0.2382186553787642,0.6981103505623997
-0.2382030253787642,0.7016557728746278
-0.2381873953787642,0.7052799823493563
-0.2381717653787642,0.7088254046615844
-0.2381561353787642,0.7125284012988198
-0.2381405053787642,0.7159162492860599
-0.2381248753787642,0.7193828844358003
-0.2381092453787642,0.7231646682355171
-0.2380936153787642,0.7267100905477452
-0.2380779853787642,0.7300191513725101
-0.2380623553787642,0.7334069993597501
-0.2380467253787642,0.7365584858595141
-0.2380310953787642,0.7400251210092545
-0.2380154653787642,0.7434917561589885
-0.2379998353787642,0.7467220298212586
-0.2379842053787642,0.749794729158523
-0.2379685753787642,0.753025002820781
-0.2379529453787642,0.7562552764830391
-0.2379373153787642,0.7596431244702915
-0.2379216853787642,0.7629521852950436
-0.2379060553787642,0.7662612461197899
-0.2378904253787642,0.7693339454570598
-0.2378747953787642,0.7724066447943296
-0.2378591653787642,0.775558131294099
-0.2378435353787642,0.7784732563063809
-0.2378279053787642,0.7814671684811512
-0.2378122753787642,0.7846974421434092
-0.2377966453787642,0.7875337799931968
-0.2377810153787642,0.7902913306804957
-0.2377653853787642,0.7932064556927775
-0.2377497553787642,0.7962003678675479
-0.2377341253787642,0.7988003442298532
-0.2377184953787642,0.8017942564046343
-0.2377028653787642,0.8047093814169156
-0.2376872353787642,0.8074669321042093
-0.2376716053787642,0.8102244827914977
-0.2376559753787642,0.8130608206412853
-0.2376403453787642,0.8158183713285831
-0.2376247153787642,0.8181819862034069
-0.2376090853787642,0.8209395368906999
-0.2375934553787642,0.8234607260905065
-0.2375778253787642,0.8262182767778
-0.2375621953787642,0.8287394659776158
-0.2375465653787642,0.8312606551774268
-0.2375309353787642,0.8336242700522501
-0.2375153053787642,0.8362242464145507
-0.2374996753787642,0.8385878612893738
-0.2374840453787642,0.8410302633266954
-0.2374684153787642,0.8435514525265064
-0.2374527853787642,0.8459938545638236
-0.2374371553787642,0.8484362566011363
-0.2374215253787642,0.8507210843134652
-0.2374058953787642,0.8530846991882926
-0.2373902653787642,0.855527101225609
-0.2373746353787642,0.857575567450456
-0.2373590053787642,0.8598603951627808
-0.2373433753787642,0.8620664357126155
-0.2373277453787642,0.8643512634249485
-0.2373121153787642,0.8665573039747834
-0.2372964853787642,0.8687633445246181
-0.2372808553787642,0.8709693850744489
-0.2372652253787642,0.8730966384617895
-0.2372495953787642,0.8753026790116282
-0.2372339653787642,0.8773511452364751
-0.2372183353787642,0.8795571857863058
-0.2372027053787642,0.8815268648486583
-0.2371870753787642,0.8838904797234813
-0.2371714453787642,0.8860177331108249
-0.2371558153787642,0.8875934763607078
-0.2371401853787642,0.8896419425855506
-0.2371245553787642,0.8916116216479031
-0.2371089253787642,0.8934237263852673
-0.2370932953787642,0.895157043960141
-0.2370776653787642,0.8969691486975055
-0.2370620353787642,0.8989388277598545
-0.2370464053787642,0.9008297196597128
-0.2370307753787642,0.902563037234583
-0.2370151453787642,0.9045327162969387
-0.2369995153787642,0.9062660338718089
-0.2369838853787642,0.907999351446676
-0.2369682553787642,0.9098114561840402
-0.2369526253787642,0.9114659865964163
-0.2369369953787642,0.913278091333784
-0.2369213653787642,0.9150901960711478
-0.2369057353787642,0.916665939321027
-0.2368901053787642,0.9183992568958972
-0.2368744753787642,0.9198962129832851
-0.2368588453787642,0.9216295305581583
-0.2368432153787642,0.9233628481330285
-0.2368275853787642,0.9250173785454016
-0.2368119553787642,0.9268294832827659
-0.2367963253787642,0.9283264393701567
-0.2367806953787642,0.9299021826200387
-0.2367650653787642,0.9314779258699205
-0.2367494353787642,0.9329748819573057
-0.2367338053787642,0.9344718380446936
-0.2367181753787642,0.9358112198070959
-0.2367025453787642,0.9372293887319899
-0.2366869153787642,0.9387263448193774
-0.2366712853787642,0.9400657265817747
-0.2366556553787642,0.9414838955066684
-0.2366400253787642,0.9427444901065765
-0.2366243953787642,0.9440838718689764
-0.2366087653787642,0.9455020407938702
-0.2365931353787642,0.9469202097187615
-0.2365775053787642,0.9482595914811611
-0.2365618753787642,0.9495201860810687
-0.2365462453787642,0.9506232063559865
-0.2365306153787642,0.9519625881183861
-0.2365149853787642,0.9532231827182894
-0.2364993553787642,0.954483777318195
-0.2364837253787642,0.9556655847556086
-0.2364680953787642,0.9567686050305259
-0.2364524653787642,0.9577928381429494
-0.2364368353787642,0.9589746455803587
-0.2364212053787642,0.959998878692782
-0.2364055753787642,0.9610231118052081
